%!PS-Adobe-3.0 EPSF-3.0
%%Creator: (MATLAB, The Mathworks, Inc. Version 9.0.0.341360 \(R2016a\). Operating System: Windows 8)
%%Title: ./classifier.eps
%%CreationDate: 2016-09-10T19:11:42
%%Pages: (atend)
%%BoundingBox:    35     8   520   412
%%LanguageLevel: 3
%%EndComments
%%BeginProlog
%%BeginResource: procset (Apache XML Graphics Std ProcSet) 1.2 0
%%Version: 1.2 0
%%Copyright: (Copyright 2001-2003,2010 The Apache Software Foundation. License terms: http://www.apache.org/licenses/LICENSE-2.0)
/bd{bind def}bind def
/ld{load def}bd
/GR/grestore ld
/M/moveto ld
/LJ/setlinejoin ld
/C/curveto ld
/f/fill ld
/LW/setlinewidth ld
/GC/setgray ld
/t/show ld
/N/newpath ld
/CT/concat ld
/cp/closepath ld
/S/stroke ld
/L/lineto ld
/CC/setcmykcolor ld
/A/ashow ld
/GS/gsave ld
/RC/setrgbcolor ld
/RM/rmoveto ld
/ML/setmiterlimit ld
/re {4 2 roll M
1 index 0 rlineto
0 exch rlineto
neg 0 rlineto
cp } bd
/_ctm matrix def
/_tm matrix def
/BT { _ctm currentmatrix pop matrix _tm copy pop 0 0 moveto } bd
/ET { _ctm setmatrix } bd
/iTm { _ctm setmatrix _tm concat } bd
/Tm { _tm astore pop iTm 0 0 moveto } bd
/ux 0.0 def
/uy 0.0 def
/F {
  /Tp exch def
  /Tf exch def
  Tf findfont Tp scalefont setfont
  /cf Tf def  /cs Tp def
} bd
/ULS {currentpoint /uy exch def /ux exch def} bd
/ULE {
  /Tcx currentpoint pop def
  gsave
  newpath
  cf findfont cs scalefont dup
  /FontMatrix get 0 get /Ts exch def /FontInfo get dup
  /UnderlinePosition get Ts mul /To exch def
  /UnderlineThickness get Ts mul /Tt exch def
  ux uy To add moveto  Tcx uy To add lineto
  Tt setlinewidth stroke
  grestore
} bd
/OLE {
  /Tcx currentpoint pop def
  gsave
  newpath
  cf findfont cs scalefont dup
  /FontMatrix get 0 get /Ts exch def /FontInfo get dup
  /UnderlinePosition get Ts mul /To exch def
  /UnderlineThickness get Ts mul /Tt exch def
  ux uy To add cs add moveto Tcx uy To add cs add lineto
  Tt setlinewidth stroke
  grestore
} bd
/SOE {
  /Tcx currentpoint pop def
  gsave
  newpath
  cf findfont cs scalefont dup
  /FontMatrix get 0 get /Ts exch def /FontInfo get dup
  /UnderlinePosition get Ts mul /To exch def
  /UnderlineThickness get Ts mul /Tt exch def
  ux uy To add cs 10 mul 26 idiv add moveto Tcx uy To add cs 10 mul 26 idiv add lineto
  Tt setlinewidth stroke
  grestore
} bd
/QT {
/Y22 exch store
/X22 exch store
/Y21 exch store
/X21 exch store
currentpoint
/Y21 load 2 mul add 3 div exch
/X21 load 2 mul add 3 div exch
/X21 load 2 mul /X22 load add 3 div
/Y21 load 2 mul /Y22 load add 3 div
/X22 load /Y22 load curveto
} bd
/SSPD {
dup length /d exch dict def
{
/v exch def
/k exch def
currentpagedevice k known {
/cpdv currentpagedevice k get def
v cpdv ne {
/upd false def
/nullv v type /nulltype eq def
/nullcpdv cpdv type /nulltype eq def
nullv nullcpdv or
{
/upd true def
} {
/sametype v type cpdv type eq def
sametype {
v type /arraytype eq {
/vlen v length def
/cpdvlen cpdv length def
vlen cpdvlen eq {
0 1 vlen 1 sub {
/i exch def
/obj v i get def
/cpdobj cpdv i get def
obj cpdobj ne {
/upd true def
exit
} if
} for
} {
/upd true def
} ifelse
} {
v type /dicttype eq {
v {
/dv exch def
/dk exch def
/cpddv cpdv dk get def
dv cpddv ne {
/upd true def
exit
} if
} forall
} {
/upd true def
} ifelse
} ifelse
} if
} ifelse
upd true eq {
d k v put
} if
} if
} if
} forall
d length 0 gt {
d setpagedevice
} if
} bd
%%EndResource
%%BeginResource: procset (Apache XML Graphics EPS ProcSet) 1.0 0
%%Version: 1.0 0
%%Copyright: (Copyright 2002-2003 The Apache Software Foundation. License terms: http://www.apache.org/licenses/LICENSE-2.0)
/BeginEPSF { %def
/b4_Inc_state save def         % Save state for cleanup
/dict_count countdictstack def % Count objects on dict stack
/op_count count 1 sub def      % Count objects on operand stack
userdict begin                 % Push userdict on dict stack
/showpage { } def              % Redefine showpage, { } = null proc
0 setgray 0 setlinecap         % Prepare graphics state
1 setlinewidth 0 setlinejoin
10 setmiterlimit [ ] 0 setdash newpath
/languagelevel where           % If level not equal to 1 then
{pop languagelevel             % set strokeadjust and
1 ne                           % overprint to their defaults.
{false setstrokeadjust false setoverprint
} if
} if
} bd
/EndEPSF { %def
count op_count sub {pop} repeat            % Clean up stacks
countdictstack dict_count sub {end} repeat
b4_Inc_state restore
} bd
%%EndResource
%FOPBeginFontDict
%%IncludeResource: font Courier-Bold
%%IncludeResource: font Helvetica
%%IncludeResource: font Courier-BoldOblique
%%IncludeResource: font Courier-Oblique
%%IncludeResource: font Times-Roman
%%IncludeResource: font Helvetica-BoldOblique
%%IncludeResource: font Helvetica-Bold
%%IncludeResource: font Helvetica-Oblique
%%IncludeResource: font Times-BoldItalic
%%IncludeResource: font Courier
%%IncludeResource: font Times-Italic
%%IncludeResource: font Times-Bold
%%IncludeResource: font Symbol
%%IncludeResource: font ZapfDingbats
%FOPEndFontDict
%%BeginResource: encoding WinAnsiEncoding
/WinAnsiEncoding [
/.notdef /.notdef /.notdef /.notdef /.notdef
/.notdef /.notdef /.notdef /.notdef /.notdef
/.notdef /.notdef /.notdef /.notdef /.notdef
/.notdef /.notdef /.notdef /.notdef /.notdef
/.notdef /.notdef /.notdef /.notdef /.notdef
/.notdef /.notdef /.notdef /.notdef /.notdef
/.notdef /.notdef /space /exclam /quotedbl
/numbersign /dollar /percent /ampersand /quotesingle
/parenleft /parenright /asterisk /plus /comma
/hyphen /period /slash /zero /one
/two /three /four /five /six
/seven /eight /nine /colon /semicolon
/less /equal /greater /question /at
/A /B /C /D /E
/F /G /H /I /J
/K /L /M /N /O
/P /Q /R /S /T
/U /V /W /X /Y
/Z /bracketleft /backslash /bracketright /asciicircum
/underscore /quoteleft /a /b /c
/d /e /f /g /h
/i /j /k /l /m
/n /o /p /q /r
/s /t /u /v /w
/x /y /z /braceleft /bar
/braceright /asciitilde /bullet /Euro /bullet
/quotesinglbase /florin /quotedblbase /ellipsis /dagger
/daggerdbl /circumflex /perthousand /Scaron /guilsinglleft
/OE /bullet /Zcaron /bullet /bullet
/quoteleft /quoteright /quotedblleft /quotedblright /bullet
/endash /emdash /asciitilde /trademark /scaron
/guilsinglright /oe /bullet /zcaron /Ydieresis
/space /exclamdown /cent /sterling /currency
/yen /brokenbar /section /dieresis /copyright
/ordfeminine /guillemotleft /logicalnot /sfthyphen /registered
/macron /degree /plusminus /twosuperior /threesuperior
/acute /mu /paragraph /middot /cedilla
/onesuperior /ordmasculine /guillemotright /onequarter /onehalf
/threequarters /questiondown /Agrave /Aacute /Acircumflex
/Atilde /Adieresis /Aring /AE /Ccedilla
/Egrave /Eacute /Ecircumflex /Edieresis /Igrave
/Iacute /Icircumflex /Idieresis /Eth /Ntilde
/Ograve /Oacute /Ocircumflex /Otilde /Odieresis
/multiply /Oslash /Ugrave /Uacute /Ucircumflex
/Udieresis /Yacute /Thorn /germandbls /agrave
/aacute /acircumflex /atilde /adieresis /aring
/ae /ccedilla /egrave /eacute /ecircumflex
/edieresis /igrave /iacute /icircumflex /idieresis
/eth /ntilde /ograve /oacute /ocircumflex
/otilde /odieresis /divide /oslash /ugrave
/uacute /ucircumflex /udieresis /yacute /thorn
/ydieresis
] def
%%EndResource
%FOPBeginFontReencode
/Courier-Bold findfont
dup length dict begin
  {1 index /FID ne {def} {pop pop} ifelse} forall
  /Encoding WinAnsiEncoding def
  currentdict
end
/Courier-Bold exch definefont pop
/Helvetica findfont
dup length dict begin
  {1 index /FID ne {def} {pop pop} ifelse} forall
  /Encoding WinAnsiEncoding def
  currentdict
end
/Helvetica exch definefont pop
/Courier-BoldOblique findfont
dup length dict begin
  {1 index /FID ne {def} {pop pop} ifelse} forall
  /Encoding WinAnsiEncoding def
  currentdict
end
/Courier-BoldOblique exch definefont pop
/Courier-Oblique findfont
dup length dict begin
  {1 index /FID ne {def} {pop pop} ifelse} forall
  /Encoding WinAnsiEncoding def
  currentdict
end
/Courier-Oblique exch definefont pop
/Times-Roman findfont
dup length dict begin
  {1 index /FID ne {def} {pop pop} ifelse} forall
  /Encoding WinAnsiEncoding def
  currentdict
end
/Times-Roman exch definefont pop
/Helvetica-BoldOblique findfont
dup length dict begin
  {1 index /FID ne {def} {pop pop} ifelse} forall
  /Encoding WinAnsiEncoding def
  currentdict
end
/Helvetica-BoldOblique exch definefont pop
/Helvetica-Bold findfont
dup length dict begin
  {1 index /FID ne {def} {pop pop} ifelse} forall
  /Encoding WinAnsiEncoding def
  currentdict
end
/Helvetica-Bold exch definefont pop
/Helvetica-Oblique findfont
dup length dict begin
  {1 index /FID ne {def} {pop pop} ifelse} forall
  /Encoding WinAnsiEncoding def
  currentdict
end
/Helvetica-Oblique exch definefont pop
/Times-BoldItalic findfont
dup length dict begin
  {1 index /FID ne {def} {pop pop} ifelse} forall
  /Encoding WinAnsiEncoding def
  currentdict
end
/Times-BoldItalic exch definefont pop
/Courier findfont
dup length dict begin
  {1 index /FID ne {def} {pop pop} ifelse} forall
  /Encoding WinAnsiEncoding def
  currentdict
end
/Courier exch definefont pop
/Times-Italic findfont
dup length dict begin
  {1 index /FID ne {def} {pop pop} ifelse} forall
  /Encoding WinAnsiEncoding def
  currentdict
end
/Times-Italic exch definefont pop
/Times-Bold findfont
dup length dict begin
  {1 index /FID ne {def} {pop pop} ifelse} forall
  /Encoding WinAnsiEncoding def
  currentdict
end
/Times-Bold exch definefont pop
%FOPEndFontReencode
%%EndProlog
%%Page: 1 1
%%PageBoundingBox: 0 0 574 444
%%BeginPageSetup
[1 0 0 -1 0 444] CT
%%EndPageSetup
GS
[0.75 0 0 0.75 0 0] CT
0.997 GC
N
0 0 765 592 re
f
GR
GS
[0.75 0 0 0.75 0 0] CT
0.997 GC
N
0 0 765 592 re
f
GR
GS
[0.75 0 0 0.75 0 0] CT
0.997 GC
N
99.639 44 M
99.639 527 L
691.361 527 L
691.361 44 L
cp
f
GR
GS
[0.73454 0.15148 -0.15148 0.73454 83.56 357.47317] CT
0 GC
/Helvetica 16 F
GS
[1 0 0 1 0 0] CT
-9 5.5 moveto 
1 -1 scale
(45) t 
GR
GR
GS
[0.75 0 0 0.75 0 0] CT
0 GC
1 LJ
1.333 LW
N
122.642 527 M
111.388 476.636 L
S
GR
GS
[0.75 0 0 0.75 0 0] CT
0 GC
1 setlinecap
1 LJ
1.333 LW
N
111.388 476.636 M
101.352 426.272 L
S
GR
GS
[0.75 0 0 0.75 0 0] CT
0 GC
1 LJ
1.333 LW
N
101.352 426.272 M
99.639 416.872 L
S
GR
GS
[0.75 0 0 0.75 0 0] CT
0 GC
1 LJ
1.333 LW
N
162.594 309.827 M
156.393 275.18 L
S
GR
GS
[0.75 0 0 0.75 0 0] CT
0 GC
1 setlinecap
1 LJ
1.333 LW
N
156.393 275.18 M
148.133 224.816 L
S
GR
GS
[0.75 0 0 0.75 0 0] CT
0 GC
1 setlinecap
1 LJ
1.333 LW
N
148.133 224.816 M
140.585 174.452 L
S
GR
GS
[0.75 0 0 0.75 0 0] CT
0 GC
1 setlinecap
1 LJ
1.333 LW
N
140.585 174.452 M
133.667 124.088 L
S
GR
GS
[0.75 0 0 0.75 0 0] CT
0 GC
1 LJ
1.333 LW
N
133.667 124.088 M
127.304 73.724 L
S
GR
GS
[0.72341 0.19794 -0.19794 0.72341 151.23254 357.47038] CT
0 GC
/Helvetica 16 F
GS
[1 0 0 1 0 0] CT
-9 5.5 moveto 
1 -1 scale
(50) t 
GR
GR
GS
[0.75 0 0 0.75 0 0] CT
0 GC
1 LJ
1.333 LW
N
216.553 527 M
201.611 476.636 L
S
GR
GS
[0.75 0 0 0.75 0 0] CT
0 GC
1 setlinecap
1 LJ
1.333 LW
N
201.611 476.636 M
188.301 426.272 L
S
GR
GS
[0.75 0 0 0.75 0 0] CT
0 GC
1 setlinecap
1 LJ
1.333 LW
N
188.301 426.272 M
176.385 375.908 L
S
GR
GS
[0.75 0 0 0.75 0 0] CT
0 GC
1 setlinecap
1 LJ
1.333 LW
N
176.385 375.908 M
165.665 325.544 L
S
GR
GS
[0.75 0 0 0.75 0 0] CT
0 GC
1 LJ
1.333 LW
N
165.665 325.544 M
162.594 309.827 L
S
GR
GS
[0.75 0 0 0.75 0 0] CT
0 GC
1 LJ
1.333 LW
N
225.549 201.391 M
220.408 174.452 L
S
GR
GS
[0.75 0 0 0.75 0 0] CT
0 GC
1 setlinecap
1 LJ
1.333 LW
N
220.408 174.452 M
211.521 124.088 L
S
GR
GS
[0.75 0 0 0.75 0 0] CT
0 GC
1 LJ
1.333 LW
N
211.521 124.088 M
203.358 73.724 L
S
GR
GS
[0.75 0 0 0.75 0 0] CT
0 GC
1 LJ
1.333 LW
N
288.504 441.271 M
283.483 426.272 L
S
GR
GS
[0.75 0 0 0.75 0 0] CT
0 GC
1 setlinecap
1 LJ
1.333 LW
N
283.483 426.272 M
268.076 375.908 L
S
GR
GS
[0.75 0 0 0.75 0 0] CT
0 GC
1 setlinecap
1 LJ
1.333 LW
N
268.076 375.908 M
254.229 325.544 L
S
GR
GS
[0.75 0 0 0.75 0 0] CT
0 GC
1 setlinecap
1 LJ
1.333 LW
N
254.229 325.544 M
241.73 275.18 L
S
GR
GS
[0.75 0 0 0.75 0 0] CT
0 GC
1 setlinecap
1 LJ
1.333 LW
N
241.73 275.18 M
230.4 224.816 L
S
GR
GS
[0.75 0 0 0.75 0 0] CT
0 GC
1 LJ
1.333 LW
N
230.4 224.816 M
225.549 201.391 L
S
GR
GS
[0.70083 0.26708 -0.26708 0.70083 226.19712 357.46593] CT
0 GC
/Helvetica 16 F
GS
[1 0 0 1 0 0] CT
-9 5.5 moveto 
1 -1 scale
(55) t 
GR
GR
GS
[0.75 0 0 0.75 0 0] CT
0 GC
1 LJ
1.333 LW
N
322.322 527 M
301.556 476.636 L
S
GR
GS
[0.75 0 0 0.75 0 0] CT
0 GC
1 LJ
1.333 LW
N
301.556 476.636 M
288.504 441.271 L
S
GR
GS
[0.75 0 0 0.75 0 0] CT
0 GC
1 LJ
1.333 LW
N
288.504 92.02 M
284.817 73.724 L
S
GR
GS
[0.75 0 0 0.75 0 0] CT
0 GC
1 LJ
1.333 LW
N
351.459 328.37 M
350.501 325.544 L
S
GR
GS
[0.75 0 0 0.75 0 0] CT
0 GC
1 setlinecap
1 LJ
1.333 LW
N
350.501 325.544 M
334.691 275.18 L
S
GR
GS
[0.75 0 0 0.75 0 0] CT
0 GC
N
326.5 235.5 M
323.672 232.672 L
322.5 235.5 L
cp
f
GR
GS
[0.75 0 0 0.75 0 0] CT
0 GC
N
326.5 235.5 M
322.5 235.5 L
323.672 238.328 L
cp
f
GR
GS
[0.75 0 0 0.75 0 0] CT
0 GC
N
326.5 235.5 M
323.672 238.328 L
326.5 239.5 L
cp
f
GR
GS
[0.75 0 0 0.75 0 0] CT
0 GC
1 setlinecap
1 LJ
1.333 LW
N
334.691 275.18 M
320.373 224.816 L
S
GR
GS
[0.75 0 0 0.75 0 0] CT
0 GC
1 setlinecap
1 LJ
1.333 LW
N
320.373 224.816 M
307.355 174.452 L
S
GR
GS
[0.75 0 0 0.75 0 0] CT
0 GC
1 setlinecap
1 LJ
1.333 LW
N
307.355 174.452 M
295.479 124.088 L
S
GR
GS
[0.75 0 0 0.75 0 0] CT
0 GC
1 LJ
1.333 LW
N
295.479 124.088 M
288.504 92.02 L
S
GR
GS
[0.66813 0.34073 -0.34073 0.66813 310.8536 359.14053] CT
0 GC
/Helvetica 16 F
GS
[1 0 0 1 0 0] CT
-9 5.5 moveto 
1 -1 scale
(60) t 
GR
GR
GS
[0.75 0 0 0.75 0 0] CT
0 GC
1 LJ
1.333 LW
N
414.414 478.883 M
413.278 476.636 L
S
GR
GS
[0.75 0 0 0.75 0 0] CT
0 GC
1 setlinecap
1 LJ
1.333 LW
N
413.278 476.636 M
389.908 426.272 L
S
GR
GS
[0.75 0 0 0.75 0 0] CT
0 GC
N
374.5 397.5 M
378.5 397.5 L
377.328 394.672 L
cp
f
GR
GS
[0.75 0 0 0.75 0 0] CT
0 GC
N
374.5 397.5 M
377.328 394.672 L
374.5 393.5 L
cp
f
GR
GS
[0.75 0 0 0.75 0 0] CT
0 GC
N
374.5 397.5 M
377.328 400.328 L
378.5 397.5 L
cp
f
GR
GS
[0.75 0 0 0.75 0 0] CT
0 GC
1 setlinecap
1 LJ
1.333 LW
N
389.908 426.272 M
369.085 375.908 L
S
GR
GS
[0.75 0 0 0.75 0 0] CT
0 GC
1 LJ
1.333 LW
N
369.085 375.908 M
351.459 328.37 L
S
GR
GS
[0.75 0 0 0.75 0 0] CT
0 GC
1 LJ
1.333 LW
N
441.329 527 M
414.414 478.883 L
S
GR
GS
[0.75 0 0 0.75 0 0] CT
0 GC
1 LJ
1.333 LW
N
414.414 215.118 M
401.427 174.452 L
S
GR
GS
[0.75 0 0 0.75 0 0] CT
0 GC
1 setlinecap
1 LJ
1.333 LW
N
401.427 174.452 M
386.691 124.088 L
S
GR
GS
[0.75 0 0 0.75 0 0] CT
0 GC
1 LJ
1.333 LW
N
386.691 124.088 M
373.21 73.724 L
S
GR
GS
[0.75 0 0 0.75 0 0] CT
0 GC
1 LJ
1.333 LW
N
477.369 368.877 M
457.483 325.544 L
S
GR
GS
[0.75 0 0 0.75 0 0] CT
0 GC
1 setlinecap
1 LJ
1.333 LW
N
457.483 325.544 M
436.613 275.18 L
S
GR
GS
[0.75 0 0 0.75 0 0] CT
0 GC
1 setlinecap
1 LJ
1.333 LW
N
436.613 275.18 M
417.772 224.816 L
S
GR
GS
[0.75 0 0 0.75 0 0] CT
0 GC
1 LJ
1.333 LW
N
417.772 224.816 M
414.414 215.118 L
S
GR
GS
[0.62312 0.4174 -0.4174 0.62312 405.29443 358.4407] CT
0 GC
/Helvetica 16 F
GS
[1 0 0 1 0 0] CT
-9 5.5 moveto 
1 -1 scale
(65) t 
GR
GR
GS
[0.75 0 0 0.75 0 0] CT
0 GC
1 LJ
1.333 LW
N
540.324 477.966 M
539.432 476.636 L
S
GR
GS
[0.75 0 0 0.75 0 0] CT
0 GC
1 setlinecap
1 LJ
1.333 LW
N
539.432 476.636 M
508.432 426.272 L
S
GR
GS
[0.75 0 0 0.75 0 0] CT
0 GC
1 setlinecap
1 LJ
1.333 LW
N
508.432 426.272 M
480.897 375.908 L
S
GR
GS
[0.75 0 0 0.75 0 0] CT
0 GC
1 LJ
1.333 LW
N
480.897 375.908 M
477.369 368.877 L
S
GR
GS
[0.75 0 0 0.75 0 0] CT
0 GC
1 LJ
1.333 LW
N
576.659 527 M
540.324 477.966 L
S
GR
GS
[0.75 0 0 0.75 0 0] CT
0 GC
1 LJ
1.333 LW
N
477.369 101.864 M
468.259 73.724 L
S
GR
GS
[0.75 0 0 0.75 0 0] CT
0 GC
1 LJ
1.333 LW
N
540.324 258.465 M
525.051 224.816 L
S
GR
GS
[0.75 0 0 0.75 0 0] CT
0 GC
1 setlinecap
1 LJ
1.333 LW
N
525.051 224.816 M
504.14 174.452 L
S
GR
GS
[0.75 0 0 0.75 0 0] CT
0 GC
1 setlinecap
1 LJ
1.333 LW
N
504.14 174.452 M
485.127 124.088 L
S
GR
GS
[0.75 0 0 0.75 0 0] CT
0 GC
1 LJ
1.333 LW
N
485.127 124.088 M
477.369 101.864 L
S
GR
GS
[0.75 0 0 0.75 0 0] CT
0 GC
1 LJ
1.333 LW
N
603.279 371.882 M
575.607 325.544 L
S
GR
GS
[0.75 0 0 0.75 0 0] CT
0 GC
1 setlinecap
1 LJ
1.333 LW
N
575.607 325.544 M
548.567 275.18 L
S
GR
GS
[0.75 0 0 0.75 0 0] CT
0 GC
1 LJ
1.333 LW
N
548.567 275.18 M
540.324 258.465 L
S
GR
GS
[0.60563 0.44239 -0.44239 0.60563 481.27437 319.67892] CT
0 GC
/Helvetica 16 F
GS
[1 0 0 1 0 0] CT
-9 5.5 moveto 
1 -1 scale
(70) t 
GR
GR
GS
[0.75 0 0 0.75 0 0] CT
0 GC
1 LJ
1.333 LW
N
666.234 457.431 M
641.652 426.272 L
S
GR
GS
[0.75 0 0 0.75 0 0] CT
0 GC
1 setlinecap
1 LJ
1.333 LW
N
641.652 426.272 M
605.906 375.908 L
S
GR
GS
[0.75 0 0 0.75 0 0] CT
0 GC
1 LJ
1.333 LW
N
605.906 375.908 M
603.279 371.882 L
S
GR
GS
[0.75 0 0 0.75 0 0] CT
0 GC
1 LJ
1.333 LW
N
603.279 147.813 M
592.613 124.088 L
S
GR
GS
[0.75 0 0 0.75 0 0] CT
0 GC
1 LJ
1.333 LW
N
592.613 124.088 M
571.667 73.724 L
S
GR
GS
[0.75 0 0 0.75 0 0] CT
0 GC
1 LJ
1.333 LW
N
666.234 265.078 M
642.838 224.816 L
S
GR
GS
[0.75 0 0 0.75 0 0] CT
0 GC
1 setlinecap
1 LJ
1.333 LW
N
642.838 224.816 M
616.218 174.452 L
S
GR
GS
[0.75 0 0 0.75 0 0] CT
0 GC
1 LJ
1.333 LW
N
616.218 174.452 M
603.279 147.813 L
S
GR
GS
[0.75 0 0 0.75 0 0] CT
0 GC
N
358.5 219.5 M
362.5 219.5 L
361.328 216.672 L
cp
f
GR
GS
[0.75 0 0 0.75 0 0] CT
0 GC
N
358.5 219.5 M
361.328 216.672 L
358.5 215.5 L
cp
f
GR
GS
[0.75 0 0 0.75 0 0] CT
0 GC
N
358.5 219.5 M
358.5 215.5 L
355.672 216.672 L
cp
f
GR
GS
[0.75 0 0 0.75 0 0] CT
0 GC
N
358.5 219.5 M
355.672 216.672 L
354.5 219.5 L
cp
f
GR
GS
[0.75 0 0 0.75 0 0] CT
0 GC
N
358.5 219.5 M
354.5 219.5 L
355.672 222.328 L
cp
f
GR
GS
[0.75 0 0 0.75 0 0] CT
0 GC
N
358.5 219.5 M
355.672 222.328 L
358.5 223.5 L
cp
f
GR
GS
[0.75 0 0 0.75 0 0] CT
0 GC
N
358.5 219.5 M
358.5 223.5 L
361.328 222.328 L
cp
f
GR
GS
[0.75 0 0 0.75 0 0] CT
0 GC
N
358.5 219.5 M
361.328 222.328 L
362.5 219.5 L
cp
f
GR
GS
[0.75 0 0 0.75 0 0] CT
0 GC
N
552.5 300.5 M
556.5 300.5 L
555.328 297.672 L
cp
f
GR
GS
[0.75 0 0 0.75 0 0] CT
0 GC
N
552.5 300.5 M
555.328 297.672 L
552.5 296.5 L
cp
f
GR
GS
[0.75 0 0 0.75 0 0] CT
0 GC
N
552.5 300.5 M
552.5 296.5 L
549.672 297.672 L
cp
f
GR
GS
[0.75 0 0 0.75 0 0] CT
0 GC
N
552.5 300.5 M
549.672 297.672 L
548.5 300.5 L
cp
f
GR
GS
[0.75 0 0 0.75 0 0] CT
0 GC
N
552.5 300.5 M
548.5 300.5 L
549.672 303.328 L
cp
f
GR
GS
[0.75 0 0 0.75 0 0] CT
0 GC
N
552.5 300.5 M
549.672 303.328 L
552.5 304.5 L
cp
f
GR
GS
[0.75 0 0 0.75 0 0] CT
0 GC
N
552.5 300.5 M
552.5 304.5 L
555.328 303.328 L
cp
f
GR
GS
[0.75 0 0 0.75 0 0] CT
0 GC
N
552.5 300.5 M
555.328 303.328 L
556.5 300.5 L
cp
f
GR
GS
[0.75 0 0 0.75 0 0] CT
0 GC
N
439.5 203.5 M
443.5 203.5 L
442.328 200.672 L
cp
f
GR
GS
[0.75 0 0 0.75 0 0] CT
0 GC
N
439.5 203.5 M
442.328 200.672 L
439.5 199.5 L
cp
f
GR
GS
[0.75 0 0 0.75 0 0] CT
0 GC
N
439.5 203.5 M
439.5 199.5 L
436.672 200.672 L
cp
f
GR
GS
[0.75 0 0 0.75 0 0] CT
0 GC
N
439.5 203.5 M
436.672 200.672 L
435.5 203.5 L
cp
f
GR
GS
[0.75 0 0 0.75 0 0] CT
0 GC
N
439.5 203.5 M
435.5 203.5 L
436.672 206.328 L
cp
f
GR
GS
[0.75 0 0 0.75 0 0] CT
0 GC
N
439.5 203.5 M
436.672 206.328 L
439.5 207.5 L
cp
f
GR
GS
[0.75 0 0 0.75 0 0] CT
0 GC
N
439.5 203.5 M
439.5 207.5 L
442.328 206.328 L
cp
f
GR
GS
[0.75 0 0 0.75 0 0] CT
0 GC
N
439.5 203.5 M
442.328 206.328 L
443.5 203.5 L
cp
f
GR
GS
[0.75 0 0 0.75 0 0] CT
0 GC
N
374.5 203.5 M
378.5 203.5 L
377.328 200.672 L
cp
f
GR
GS
[0.75 0 0 0.75 0 0] CT
0 GC
N
374.5 203.5 M
377.328 200.672 L
374.5 199.5 L
cp
f
GR
GS
[0.75 0 0 0.75 0 0] CT
0 GC
N
374.5 203.5 M
374.5 199.5 L
371.672 200.672 L
cp
f
GR
GS
[0.75 0 0 0.75 0 0] CT
0 GC
N
374.5 203.5 M
371.672 200.672 L
370.5 203.5 L
cp
f
GR
GS
[0.75 0 0 0.75 0 0] CT
0 GC
N
374.5 203.5 M
370.5 203.5 L
371.672 206.328 L
cp
f
GR
GS
[0.75 0 0 0.75 0 0] CT
0 GC
N
374.5 203.5 M
371.672 206.328 L
374.5 207.5 L
cp
f
GR
GS
[0.75 0 0 0.75 0 0] CT
0 GC
N
374.5 203.5 M
374.5 207.5 L
377.328 206.328 L
cp
f
GR
GS
[0.75 0 0 0.75 0 0] CT
0 GC
N
374.5 203.5 M
377.328 206.328 L
378.5 203.5 L
cp
f
GR
GS
[0.75 0 0 0.75 0 0] CT
0 GC
N
504.5 284.5 M
508.5 284.5 L
507.328 281.672 L
cp
f
GR
GS
[0.75 0 0 0.75 0 0] CT
0 GC
N
504.5 284.5 M
507.328 281.672 L
504.5 280.5 L
cp
f
GR
GS
[0.75 0 0 0.75 0 0] CT
0 GC
N
504.5 284.5 M
504.5 280.5 L
501.672 281.672 L
cp
f
GR
GS
[0.75 0 0 0.75 0 0] CT
0 GC
N
504.5 284.5 M
501.672 281.672 L
500.5 284.5 L
cp
f
GR
GS
[0.75 0 0 0.75 0 0] CT
0 GC
N
504.5 284.5 M
500.5 284.5 L
501.672 287.328 L
cp
f
GR
GS
[0.75 0 0 0.75 0 0] CT
0 GC
N
504.5 284.5 M
501.672 287.328 L
504.5 288.5 L
cp
f
GR
GS
[0.75 0 0 0.75 0 0] CT
0 GC
N
504.5 284.5 M
504.5 288.5 L
507.328 287.328 L
cp
f
GR
GS
[0.75 0 0 0.75 0 0] CT
0 GC
N
504.5 284.5 M
507.328 287.328 L
508.5 284.5 L
cp
f
GR
GS
[0.75 0 0 0.75 0 0] CT
0 GC
N
520.5 284.5 M
524.5 284.5 L
523.328 281.672 L
cp
f
GR
GS
[0.75 0 0 0.75 0 0] CT
0 GC
N
520.5 284.5 M
523.328 281.672 L
520.5 280.5 L
cp
f
GR
GS
[0.75 0 0 0.75 0 0] CT
0 GC
N
520.5 284.5 M
520.5 280.5 L
517.672 281.672 L
cp
f
GR
GS
[0.75 0 0 0.75 0 0] CT
0 GC
N
520.5 284.5 M
517.672 281.672 L
516.5 284.5 L
cp
f
GR
GS
[0.75 0 0 0.75 0 0] CT
0 GC
N
520.5 284.5 M
516.5 284.5 L
517.672 287.328 L
cp
f
GR
GS
[0.75 0 0 0.75 0 0] CT
0 GC
N
520.5 284.5 M
517.672 287.328 L
520.5 288.5 L
cp
f
GR
GS
[0.75 0 0 0.75 0 0] CT
0 GC
N
520.5 284.5 M
520.5 288.5 L
523.328 287.328 L
cp
f
GR
GS
[0.75 0 0 0.75 0 0] CT
0 GC
N
520.5 284.5 M
523.328 287.328 L
524.5 284.5 L
cp
f
GR
GS
[0.75 0 0 0.75 0 0] CT
0 GC
N
164.5 267.5 M
168.5 267.5 L
167.328 264.672 L
cp
f
GR
GS
[0.75 0 0 0.75 0 0] CT
0 GC
N
164.5 267.5 M
167.328 264.672 L
164.5 263.5 L
cp
f
GR
GS
[0.75 0 0 0.75 0 0] CT
0 GC
N
164.5 267.5 M
164.5 263.5 L
161.672 264.672 L
cp
f
GR
GS
[0.75 0 0 0.75 0 0] CT
0 GC
N
164.5 267.5 M
161.672 264.672 L
160.5 267.5 L
cp
f
GR
GS
[0.75 0 0 0.75 0 0] CT
0 GC
N
164.5 267.5 M
160.5 267.5 L
161.672 270.328 L
cp
f
GR
GS
[0.75 0 0 0.75 0 0] CT
0 GC
N
164.5 267.5 M
161.672 270.328 L
164.5 271.5 L
cp
f
GR
GS
[0.75 0 0 0.75 0 0] CT
0 GC
N
164.5 267.5 M
164.5 271.5 L
167.328 270.328 L
cp
f
GR
GS
[0.75 0 0 0.75 0 0] CT
0 GC
N
164.5 267.5 M
167.328 270.328 L
168.5 267.5 L
cp
f
GR
GS
[0.75 0 0 0.75 0 0] CT
0 GC
N
374.5 138.5 M
378.5 138.5 L
377.328 135.672 L
cp
f
GR
GS
[0.75 0 0 0.75 0 0] CT
0 GC
N
374.5 138.5 M
377.328 135.672 L
374.5 134.5 L
cp
f
GR
GS
[0.75 0 0 0.75 0 0] CT
0 GC
N
374.5 138.5 M
374.5 134.5 L
371.672 135.672 L
cp
f
GR
GS
[0.75 0 0 0.75 0 0] CT
0 GC
N
374.5 138.5 M
371.672 135.672 L
370.5 138.5 L
cp
f
GR
GS
[0.75 0 0 0.75 0 0] CT
0 GC
N
374.5 138.5 M
370.5 138.5 L
371.672 141.328 L
cp
f
GR
GS
[0.75 0 0 0.75 0 0] CT
0 GC
N
374.5 138.5 M
371.672 141.328 L
374.5 142.5 L
cp
f
GR
GS
[0.75 0 0 0.75 0 0] CT
0 GC
N
374.5 138.5 M
374.5 142.5 L
377.328 141.328 L
cp
f
GR
GS
[0.75 0 0 0.75 0 0] CT
0 GC
N
374.5 138.5 M
377.328 141.328 L
378.5 138.5 L
cp
f
GR
GS
[0.75 0 0 0.75 0 0] CT
0 GC
N
585.5 494.5 M
589.5 494.5 L
588.328 491.672 L
cp
f
GR
GS
[0.75 0 0 0.75 0 0] CT
0 GC
N
585.5 494.5 M
588.328 491.672 L
585.5 490.5 L
cp
f
GR
GS
[0.75 0 0 0.75 0 0] CT
0 GC
N
585.5 494.5 M
585.5 490.5 L
582.672 491.672 L
cp
f
GR
GS
[0.75 0 0 0.75 0 0] CT
0 GC
N
585.5 494.5 M
582.672 491.672 L
581.5 494.5 L
cp
f
GR
GS
[0.75 0 0 0.75 0 0] CT
0 GC
N
585.5 494.5 M
581.5 494.5 L
582.672 497.328 L
cp
f
GR
GS
[0.75 0 0 0.75 0 0] CT
0 GC
N
585.5 494.5 M
582.672 497.328 L
585.5 498.5 L
cp
f
GR
GS
[0.75 0 0 0.75 0 0] CT
0 GC
N
585.5 494.5 M
585.5 498.5 L
588.328 497.328 L
cp
f
GR
GS
[0.75 0 0 0.75 0 0] CT
0 GC
N
585.5 494.5 M
588.328 497.328 L
589.5 494.5 L
cp
f
GR
GS
[0.75 0 0 0.75 0 0] CT
0 GC
N
358.5 203.5 M
362.5 203.5 L
361.328 200.672 L
cp
f
GR
GS
[0.75 0 0 0.75 0 0] CT
0 GC
N
358.5 203.5 M
361.328 200.672 L
358.5 199.5 L
cp
f
GR
GS
[0.75 0 0 0.75 0 0] CT
0 GC
N
358.5 203.5 M
358.5 199.5 L
355.672 200.672 L
cp
f
GR
GS
[0.75 0 0 0.75 0 0] CT
0 GC
N
358.5 203.5 M
355.672 200.672 L
354.5 203.5 L
cp
f
GR
GS
[0.75 0 0 0.75 0 0] CT
0 GC
N
358.5 203.5 M
354.5 203.5 L
355.672 206.328 L
cp
f
GR
GS
[0.75 0 0 0.75 0 0] CT
0 GC
N
358.5 203.5 M
355.672 206.328 L
358.5 207.5 L
cp
f
GR
GS
[0.75 0 0 0.75 0 0] CT
0 GC
N
358.5 203.5 M
358.5 207.5 L
361.328 206.328 L
cp
f
GR
GS
[0.75 0 0 0.75 0 0] CT
0 GC
N
358.5 203.5 M
361.328 206.328 L
362.5 203.5 L
cp
f
GR
GS
[0.75 0 0 0.75 0 0] CT
0 GC
N
342.5 122.5 M
346.5 122.5 L
345.328 119.672 L
cp
f
GR
GS
[0.75 0 0 0.75 0 0] CT
0 GC
N
342.5 122.5 M
345.328 119.672 L
342.5 118.5 L
cp
f
GR
GS
[0.75 0 0 0.75 0 0] CT
0 GC
N
342.5 122.5 M
342.5 118.5 L
339.672 119.672 L
cp
f
GR
GS
[0.75 0 0 0.75 0 0] CT
0 GC
N
342.5 122.5 M
339.672 119.672 L
338.5 122.5 L
cp
f
GR
GS
[0.75 0 0 0.75 0 0] CT
0 GC
N
342.5 122.5 M
338.5 122.5 L
339.672 125.328 L
cp
f
GR
GS
[0.75 0 0 0.75 0 0] CT
0 GC
N
342.5 122.5 M
339.672 125.328 L
342.5 126.5 L
cp
f
GR
GS
[0.75 0 0 0.75 0 0] CT
0 GC
N
342.5 122.5 M
342.5 126.5 L
345.328 125.328 L
cp
f
GR
GS
[0.75 0 0 0.75 0 0] CT
0 GC
N
342.5 122.5 M
345.328 125.328 L
346.5 122.5 L
cp
f
GR
GS
[0.75 0 0 0.75 0 0] CT
0 GC
N
407.5 251.5 M
411.5 251.5 L
410.328 248.672 L
cp
f
GR
GS
[0.75 0 0 0.75 0 0] CT
0 GC
N
407.5 251.5 M
410.328 248.672 L
407.5 247.5 L
cp
f
GR
GS
[0.75 0 0 0.75 0 0] CT
0 GC
N
407.5 251.5 M
407.5 247.5 L
404.672 248.672 L
cp
f
GR
GS
[0.75 0 0 0.75 0 0] CT
0 GC
N
407.5 251.5 M
404.672 248.672 L
403.5 251.5 L
cp
f
GR
GS
[0.75 0 0 0.75 0 0] CT
0 GC
N
407.5 251.5 M
403.5 251.5 L
404.672 254.328 L
cp
f
GR
GS
[0.75 0 0 0.75 0 0] CT
0 GC
N
407.5 251.5 M
404.672 254.328 L
407.5 255.5 L
cp
f
GR
GS
[0.75 0 0 0.75 0 0] CT
0 GC
N
407.5 251.5 M
407.5 255.5 L
410.328 254.328 L
cp
f
GR
GS
[0.75 0 0 0.75 0 0] CT
0 GC
N
407.5 251.5 M
410.328 254.328 L
411.5 251.5 L
cp
f
GR
GS
[0.75 0 0 0.75 0 0] CT
0 GC
N
439.5 429.5 M
443.5 429.5 L
442.328 426.672 L
cp
f
GR
GS
[0.75 0 0 0.75 0 0] CT
0 GC
N
439.5 429.5 M
442.328 426.672 L
439.5 425.5 L
cp
f
GR
GS
[0.75 0 0 0.75 0 0] CT
0 GC
N
439.5 429.5 M
439.5 425.5 L
436.672 426.672 L
cp
f
GR
GS
[0.75 0 0 0.75 0 0] CT
0 GC
N
439.5 429.5 M
436.672 426.672 L
435.5 429.5 L
cp
f
GR
GS
[0.75 0 0 0.75 0 0] CT
0 GC
N
439.5 429.5 M
435.5 429.5 L
436.672 432.328 L
cp
f
GR
GS
[0.75 0 0 0.75 0 0] CT
0 GC
N
439.5 429.5 M
436.672 432.328 L
439.5 433.5 L
cp
f
GR
GS
[0.75 0 0 0.75 0 0] CT
0 GC
N
439.5 429.5 M
439.5 433.5 L
442.328 432.328 L
cp
f
GR
GS
[0.75 0 0 0.75 0 0] CT
0 GC
N
439.5 429.5 M
442.328 432.328 L
443.5 429.5 L
cp
f
GR
GS
[0.75 0 0 0.75 0 0] CT
0 GC
N
391.5 203.5 M
395.5 203.5 L
394.328 200.672 L
cp
f
GR
GS
[0.75 0 0 0.75 0 0] CT
0 GC
N
391.5 203.5 M
394.328 200.672 L
391.5 199.5 L
cp
f
GR
GS
[0.75 0 0 0.75 0 0] CT
0 GC
N
391.5 203.5 M
391.5 199.5 L
388.672 200.672 L
cp
f
GR
GS
[0.75 0 0 0.75 0 0] CT
0 GC
N
391.5 203.5 M
388.672 200.672 L
387.5 203.5 L
cp
f
GR
GS
[0.75 0 0 0.75 0 0] CT
0 GC
N
391.5 203.5 M
387.5 203.5 L
388.672 206.328 L
cp
f
GR
GS
[0.75 0 0 0.75 0 0] CT
0 GC
N
391.5 203.5 M
388.672 206.328 L
391.5 207.5 L
cp
f
GR
GS
[0.75 0 0 0.75 0 0] CT
0 GC
N
391.5 203.5 M
391.5 207.5 L
394.328 206.328 L
cp
f
GR
GS
[0.75 0 0 0.75 0 0] CT
0 GC
N
391.5 203.5 M
394.328 206.328 L
395.5 203.5 L
cp
f
GR
GS
[0.75 0 0 0.75 0 0] CT
0 GC
N
504.5 365.5 M
508.5 365.5 L
507.328 362.672 L
cp
f
GR
GS
[0.75 0 0 0.75 0 0] CT
0 GC
N
504.5 365.5 M
507.328 362.672 L
504.5 361.5 L
cp
f
GR
GS
[0.75 0 0 0.75 0 0] CT
0 GC
N
504.5 365.5 M
504.5 361.5 L
501.672 362.672 L
cp
f
GR
GS
[0.75 0 0 0.75 0 0] CT
0 GC
N
504.5 365.5 M
501.672 362.672 L
500.5 365.5 L
cp
f
GR
GS
[0.75 0 0 0.75 0 0] CT
0 GC
N
504.5 365.5 M
500.5 365.5 L
501.672 368.328 L
cp
f
GR
GS
[0.75 0 0 0.75 0 0] CT
0 GC
N
504.5 365.5 M
501.672 368.328 L
504.5 369.5 L
cp
f
GR
GS
[0.75 0 0 0.75 0 0] CT
0 GC
N
504.5 365.5 M
504.5 369.5 L
507.328 368.328 L
cp
f
GR
GS
[0.75 0 0 0.75 0 0] CT
0 GC
N
504.5 365.5 M
507.328 368.328 L
508.5 365.5 L
cp
f
GR
GS
[0.75 0 0 0.75 0 0] CT
0 GC
N
471.5 235.5 M
475.5 235.5 L
474.328 232.672 L
cp
f
GR
GS
[0.75 0 0 0.75 0 0] CT
0 GC
N
471.5 235.5 M
474.328 232.672 L
471.5 231.5 L
cp
f
GR
GS
[0.75 0 0 0.75 0 0] CT
0 GC
N
471.5 235.5 M
471.5 231.5 L
468.672 232.672 L
cp
f
GR
GS
[0.75 0 0 0.75 0 0] CT
0 GC
N
471.5 235.5 M
468.672 232.672 L
467.5 235.5 L
cp
f
GR
GS
[0.75 0 0 0.75 0 0] CT
0 GC
N
471.5 235.5 M
467.5 235.5 L
468.672 238.328 L
cp
f
GR
GS
[0.75 0 0 0.75 0 0] CT
0 GC
N
471.5 235.5 M
468.672 238.328 L
471.5 239.5 L
cp
f
GR
GS
[0.75 0 0 0.75 0 0] CT
0 GC
N
471.5 235.5 M
471.5 239.5 L
474.328 238.328 L
cp
f
GR
GS
[0.75 0 0 0.75 0 0] CT
0 GC
N
471.5 235.5 M
474.328 238.328 L
475.5 235.5 L
cp
f
GR
GS
[0.75 0 0 0.75 0 0] CT
0 GC
N
423.5 203.5 M
427.5 203.5 L
426.328 200.672 L
cp
f
GR
GS
[0.75 0 0 0.75 0 0] CT
0 GC
N
423.5 203.5 M
426.328 200.672 L
423.5 199.5 L
cp
f
GR
GS
[0.75 0 0 0.75 0 0] CT
0 GC
N
423.5 203.5 M
423.5 199.5 L
420.672 200.672 L
cp
f
GR
GS
[0.75 0 0 0.75 0 0] CT
0 GC
N
423.5 203.5 M
420.672 200.672 L
419.5 203.5 L
cp
f
GR
GS
[0.75 0 0 0.75 0 0] CT
0 GC
N
423.5 203.5 M
419.5 203.5 L
420.672 206.328 L
cp
f
GR
GS
[0.75 0 0 0.75 0 0] CT
0 GC
N
423.5 203.5 M
420.672 206.328 L
423.5 207.5 L
cp
f
GR
GS
[0.75 0 0 0.75 0 0] CT
0 GC
N
423.5 203.5 M
423.5 207.5 L
426.328 206.328 L
cp
f
GR
GS
[0.75 0 0 0.75 0 0] CT
0 GC
N
423.5 203.5 M
426.328 206.328 L
427.5 203.5 L
cp
f
GR
GS
[0.75 0 0 0.75 0 0] CT
0 GC
N
569.5 267.5 M
573.5 267.5 L
572.328 264.672 L
cp
f
GR
GS
[0.75 0 0 0.75 0 0] CT
0 GC
N
569.5 267.5 M
572.328 264.672 L
569.5 263.5 L
cp
f
GR
GS
[0.75 0 0 0.75 0 0] CT
0 GC
N
569.5 267.5 M
569.5 263.5 L
566.672 264.672 L
cp
f
GR
GS
[0.75 0 0 0.75 0 0] CT
0 GC
N
569.5 267.5 M
566.672 264.672 L
565.5 267.5 L
cp
f
GR
GS
[0.75 0 0 0.75 0 0] CT
0 GC
N
569.5 267.5 M
565.5 267.5 L
566.672 270.328 L
cp
f
GR
GS
[0.75 0 0 0.75 0 0] CT
0 GC
N
569.5 267.5 M
566.672 270.328 L
569.5 271.5 L
cp
f
GR
GS
[0.75 0 0 0.75 0 0] CT
0 GC
N
569.5 267.5 M
569.5 271.5 L
572.328 270.328 L
cp
f
GR
GS
[0.75 0 0 0.75 0 0] CT
0 GC
N
569.5 267.5 M
572.328 270.328 L
573.5 267.5 L
cp
f
GR
GS
[0.75 0 0 0.75 0 0] CT
0 GC
N
196.5 203.5 M
200.5 203.5 L
199.328 200.672 L
cp
f
GR
GS
[0.75 0 0 0.75 0 0] CT
0 GC
N
196.5 203.5 M
199.328 200.672 L
196.5 199.5 L
cp
f
GR
GS
[0.75 0 0 0.75 0 0] CT
0 GC
N
196.5 203.5 M
196.5 199.5 L
193.672 200.672 L
cp
f
GR
GS
[0.75 0 0 0.75 0 0] CT
0 GC
N
196.5 203.5 M
193.672 200.672 L
192.5 203.5 L
cp
f
GR
GS
[0.75 0 0 0.75 0 0] CT
0 GC
N
196.5 203.5 M
192.5 203.5 L
193.672 206.328 L
cp
f
GR
GS
[0.75 0 0 0.75 0 0] CT
0 GC
N
196.5 203.5 M
193.672 206.328 L
196.5 207.5 L
cp
f
GR
GS
[0.75 0 0 0.75 0 0] CT
0 GC
N
196.5 203.5 M
196.5 207.5 L
199.328 206.328 L
cp
f
GR
GS
[0.75 0 0 0.75 0 0] CT
0 GC
N
196.5 203.5 M
199.328 206.328 L
200.5 203.5 L
cp
f
GR
GS
[0.75 0 0 0.75 0 0] CT
0 GC
N
407.5 219.5 M
411.5 219.5 L
410.328 216.672 L
cp
f
GR
GS
[0.75 0 0 0.75 0 0] CT
0 GC
N
407.5 219.5 M
410.328 216.672 L
407.5 215.5 L
cp
f
GR
GS
[0.75 0 0 0.75 0 0] CT
0 GC
N
407.5 219.5 M
407.5 215.5 L
404.672 216.672 L
cp
f
GR
GS
[0.75 0 0 0.75 0 0] CT
0 GC
N
407.5 219.5 M
404.672 216.672 L
403.5 219.5 L
cp
f
GR
GS
[0.75 0 0 0.75 0 0] CT
0 GC
N
407.5 219.5 M
403.5 219.5 L
404.672 222.328 L
cp
f
GR
GS
[0.75 0 0 0.75 0 0] CT
0 GC
N
407.5 219.5 M
404.672 222.328 L
407.5 223.5 L
cp
f
GR
GS
[0.75 0 0 0.75 0 0] CT
0 GC
N
407.5 219.5 M
407.5 223.5 L
410.328 222.328 L
cp
f
GR
GS
[0.75 0 0 0.75 0 0] CT
0 GC
N
407.5 219.5 M
410.328 222.328 L
411.5 219.5 L
cp
f
GR
GS
[0.75 0 0 0.75 0 0] CT
0 GC
N
293.5 187.5 M
297.5 187.5 L
296.328 184.672 L
cp
f
GR
GS
[0.75 0 0 0.75 0 0] CT
0 GC
N
293.5 187.5 M
296.328 184.672 L
293.5 183.5 L
cp
f
GR
GS
[0.75 0 0 0.75 0 0] CT
0 GC
N
293.5 187.5 M
293.5 183.5 L
290.672 184.672 L
cp
f
GR
GS
[0.75 0 0 0.75 0 0] CT
0 GC
N
293.5 187.5 M
290.672 184.672 L
289.5 187.5 L
cp
f
GR
GS
[0.75 0 0 0.75 0 0] CT
0 GC
N
293.5 187.5 M
289.5 187.5 L
290.672 190.328 L
cp
f
GR
GS
[0.75 0 0 0.75 0 0] CT
0 GC
N
293.5 187.5 M
290.672 190.328 L
293.5 191.5 L
cp
f
GR
GS
[0.75 0 0 0.75 0 0] CT
0 GC
N
293.5 187.5 M
293.5 191.5 L
296.328 190.328 L
cp
f
GR
GS
[0.75 0 0 0.75 0 0] CT
0 GC
N
293.5 187.5 M
296.328 190.328 L
297.5 187.5 L
cp
f
GR
GS
[0.75 0 0 0.75 0 0] CT
0 GC
N
455.5 300.5 M
459.5 300.5 L
458.328 297.672 L
cp
f
GR
GS
[0.75 0 0 0.75 0 0] CT
0 GC
N
455.5 300.5 M
458.328 297.672 L
455.5 296.5 L
cp
f
GR
GS
[0.75 0 0 0.75 0 0] CT
0 GC
N
455.5 300.5 M
455.5 296.5 L
452.672 297.672 L
cp
f
GR
GS
[0.75 0 0 0.75 0 0] CT
0 GC
N
455.5 300.5 M
452.672 297.672 L
451.5 300.5 L
cp
f
GR
GS
[0.75 0 0 0.75 0 0] CT
0 GC
N
455.5 300.5 M
451.5 300.5 L
452.672 303.328 L
cp
f
GR
GS
[0.75 0 0 0.75 0 0] CT
0 GC
N
455.5 300.5 M
452.672 303.328 L
455.5 304.5 L
cp
f
GR
GS
[0.75 0 0 0.75 0 0] CT
0 GC
N
455.5 300.5 M
455.5 304.5 L
458.328 303.328 L
cp
f
GR
GS
[0.75 0 0 0.75 0 0] CT
0 GC
N
455.5 300.5 M
458.328 303.328 L
459.5 300.5 L
cp
f
GR
GS
[0.75 0 0 0.75 0 0] CT
0 GC
N
245.5 106.5 M
249.5 106.5 L
248.328 103.672 L
cp
f
GR
GS
[0.75 0 0 0.75 0 0] CT
0 GC
N
245.5 106.5 M
248.328 103.672 L
245.5 102.5 L
cp
f
GR
GS
[0.75 0 0 0.75 0 0] CT
0 GC
N
245.5 106.5 M
245.5 102.5 L
242.672 103.672 L
cp
f
GR
GS
[0.75 0 0 0.75 0 0] CT
0 GC
N
245.5 106.5 M
242.672 103.672 L
241.5 106.5 L
cp
f
GR
GS
[0.75 0 0 0.75 0 0] CT
0 GC
N
245.5 106.5 M
241.5 106.5 L
242.672 109.328 L
cp
f
GR
GS
[0.75 0 0 0.75 0 0] CT
0 GC
N
245.5 106.5 M
242.672 109.328 L
245.5 110.5 L
cp
f
GR
GS
[0.75 0 0 0.75 0 0] CT
0 GC
N
245.5 106.5 M
245.5 110.5 L
248.328 109.328 L
cp
f
GR
GS
[0.75 0 0 0.75 0 0] CT
0 GC
N
245.5 106.5 M
248.328 109.328 L
249.5 106.5 L
cp
f
GR
GS
[0.75 0 0 0.75 0 0] CT
0 GC
N
358.5 170.5 M
362.5 170.5 L
361.328 167.672 L
cp
f
GR
GS
[0.75 0 0 0.75 0 0] CT
0 GC
N
358.5 170.5 M
361.328 167.672 L
358.5 166.5 L
cp
f
GR
GS
[0.75 0 0 0.75 0 0] CT
0 GC
N
358.5 170.5 M
358.5 166.5 L
355.672 167.672 L
cp
f
GR
GS
[0.75 0 0 0.75 0 0] CT
0 GC
N
358.5 170.5 M
355.672 167.672 L
354.5 170.5 L
cp
f
GR
GS
[0.75 0 0 0.75 0 0] CT
0 GC
N
358.5 170.5 M
354.5 170.5 L
355.672 173.328 L
cp
f
GR
GS
[0.75 0 0 0.75 0 0] CT
0 GC
N
358.5 170.5 M
355.672 173.328 L
358.5 174.5 L
cp
f
GR
GS
[0.75 0 0 0.75 0 0] CT
0 GC
N
358.5 170.5 M
358.5 174.5 L
361.328 173.328 L
cp
f
GR
GS
[0.75 0 0 0.75 0 0] CT
0 GC
N
358.5 170.5 M
361.328 173.328 L
362.5 170.5 L
cp
f
GR
GS
[0.75 0 0 0.75 0 0] CT
0 GC
N
471.5 284.5 M
475.5 284.5 L
474.328 281.672 L
cp
f
GR
GS
[0.75 0 0 0.75 0 0] CT
0 GC
N
471.5 284.5 M
474.328 281.672 L
471.5 280.5 L
cp
f
GR
GS
[0.75 0 0 0.75 0 0] CT
0 GC
N
471.5 284.5 M
471.5 280.5 L
468.672 281.672 L
cp
f
GR
GS
[0.75 0 0 0.75 0 0] CT
0 GC
N
471.5 284.5 M
468.672 281.672 L
467.5 284.5 L
cp
f
GR
GS
[0.75 0 0 0.75 0 0] CT
0 GC
N
471.5 284.5 M
467.5 284.5 L
468.672 287.328 L
cp
f
GR
GS
[0.75 0 0 0.75 0 0] CT
0 GC
N
471.5 284.5 M
468.672 287.328 L
471.5 288.5 L
cp
f
GR
GS
[0.75 0 0 0.75 0 0] CT
0 GC
N
471.5 284.5 M
471.5 288.5 L
474.328 287.328 L
cp
f
GR
GS
[0.75 0 0 0.75 0 0] CT
0 GC
N
471.5 284.5 M
474.328 287.328 L
475.5 284.5 L
cp
f
GR
GS
[0.75 0 0 0.75 0 0] CT
0 GC
N
342.5 284.5 M
346.5 284.5 L
345.328 281.672 L
cp
f
GR
GS
[0.75 0 0 0.75 0 0] CT
0 GC
N
342.5 284.5 M
345.328 281.672 L
342.5 280.5 L
cp
f
GR
GS
[0.75 0 0 0.75 0 0] CT
0 GC
N
342.5 284.5 M
342.5 280.5 L
339.672 281.672 L
cp
f
GR
GS
[0.75 0 0 0.75 0 0] CT
0 GC
N
342.5 284.5 M
339.672 281.672 L
338.5 284.5 L
cp
f
GR
GS
[0.75 0 0 0.75 0 0] CT
0 GC
N
342.5 284.5 M
338.5 284.5 L
339.672 287.328 L
cp
f
GR
GS
[0.75 0 0 0.75 0 0] CT
0 GC
N
342.5 284.5 M
339.672 287.328 L
342.5 288.5 L
cp
f
GR
GS
[0.75 0 0 0.75 0 0] CT
0 GC
N
342.5 284.5 M
342.5 288.5 L
345.328 287.328 L
cp
f
GR
GS
[0.75 0 0 0.75 0 0] CT
0 GC
N
342.5 284.5 M
345.328 287.328 L
346.5 284.5 L
cp
f
GR
GS
[0.75 0 0 0.75 0 0] CT
0 GC
N
407.5 348.5 M
411.5 348.5 L
410.328 345.672 L
cp
f
GR
GS
[0.75 0 0 0.75 0 0] CT
0 GC
N
407.5 348.5 M
410.328 345.672 L
407.5 344.5 L
cp
f
GR
GS
[0.75 0 0 0.75 0 0] CT
0 GC
N
407.5 348.5 M
407.5 344.5 L
404.672 345.672 L
cp
f
GR
GS
[0.75 0 0 0.75 0 0] CT
0 GC
N
407.5 348.5 M
404.672 345.672 L
403.5 348.5 L
cp
f
GR
GS
[0.75 0 0 0.75 0 0] CT
0 GC
N
407.5 348.5 M
403.5 348.5 L
404.672 351.328 L
cp
f
GR
GS
[0.75 0 0 0.75 0 0] CT
0 GC
N
407.5 348.5 M
404.672 351.328 L
407.5 352.5 L
cp
f
GR
GS
[0.75 0 0 0.75 0 0] CT
0 GC
N
407.5 348.5 M
407.5 352.5 L
410.328 351.328 L
cp
f
GR
GS
[0.75 0 0 0.75 0 0] CT
0 GC
N
407.5 348.5 M
410.328 351.328 L
411.5 348.5 L
cp
f
GR
GS
[0.75 0 0 0.75 0 0] CT
0 GC
N
374.5 397.5 M
374.5 393.5 L
371.672 394.672 L
cp
f
GR
GS
[0.75 0 0 0.75 0 0] CT
0 GC
N
374.5 397.5 M
371.672 394.672 L
370.5 397.5 L
cp
f
GR
GS
[0.75 0 0 0.75 0 0] CT
0 GC
N
374.5 397.5 M
370.5 397.5 L
371.672 400.328 L
cp
f
GR
GS
[0.75 0 0 0.75 0 0] CT
0 GC
N
374.5 397.5 M
371.672 400.328 L
374.5 401.5 L
cp
f
GR
GS
[0.75 0 0 0.75 0 0] CT
0 GC
N
374.5 397.5 M
374.5 401.5 L
377.328 400.328 L
cp
f
GR
GS
[0.75 0 0 0.75 0 0] CT
0 GC
N
552.5 187.5 M
556.5 187.5 L
555.328 184.672 L
cp
f
GR
GS
[0.75 0 0 0.75 0 0] CT
0 GC
N
552.5 187.5 M
555.328 184.672 L
552.5 183.5 L
cp
f
GR
GS
[0.75 0 0 0.75 0 0] CT
0 GC
N
552.5 187.5 M
552.5 183.5 L
549.672 184.672 L
cp
f
GR
GS
[0.75 0 0 0.75 0 0] CT
0 GC
N
552.5 187.5 M
549.672 184.672 L
548.5 187.5 L
cp
f
GR
GS
[0.75 0 0 0.75 0 0] CT
0 GC
N
552.5 187.5 M
548.5 187.5 L
549.672 190.328 L
cp
f
GR
GS
[0.75 0 0 0.75 0 0] CT
0 GC
N
552.5 187.5 M
549.672 190.328 L
552.5 191.5 L
cp
f
GR
GS
[0.75 0 0 0.75 0 0] CT
0 GC
N
552.5 187.5 M
552.5 191.5 L
555.328 190.328 L
cp
f
GR
GS
[0.75 0 0 0.75 0 0] CT
0 GC
N
552.5 187.5 M
555.328 190.328 L
556.5 187.5 L
cp
f
GR
GS
[0.75 0 0 0.75 0 0] CT
0 GC
N
488.5 332.5 M
492.5 332.5 L
491.328 329.672 L
cp
f
GR
GS
[0.75 0 0 0.75 0 0] CT
0 GC
N
488.5 332.5 M
491.328 329.672 L
488.5 328.5 L
cp
f
GR
GS
[0.75 0 0 0.75 0 0] CT
0 GC
N
488.5 332.5 M
488.5 328.5 L
485.672 329.672 L
cp
f
GR
GS
[0.75 0 0 0.75 0 0] CT
0 GC
N
488.5 332.5 M
485.672 329.672 L
484.5 332.5 L
cp
f
GR
GS
[0.75 0 0 0.75 0 0] CT
0 GC
N
488.5 332.5 M
484.5 332.5 L
485.672 335.328 L
cp
f
GR
GS
[0.75 0 0 0.75 0 0] CT
0 GC
N
488.5 332.5 M
485.672 335.328 L
488.5 336.5 L
cp
f
GR
GS
[0.75 0 0 0.75 0 0] CT
0 GC
N
488.5 332.5 M
488.5 336.5 L
491.328 335.328 L
cp
f
GR
GS
[0.75 0 0 0.75 0 0] CT
0 GC
N
488.5 332.5 M
491.328 335.328 L
492.5 332.5 L
cp
f
GR
GS
[0.75 0 0 0.75 0 0] CT
0 GC
N
407.5 251.5 M
411.5 251.5 L
410.328 248.672 L
cp
f
GR
GS
[0.75 0 0 0.75 0 0] CT
0 GC
N
407.5 251.5 M
410.328 248.672 L
407.5 247.5 L
cp
f
GR
GS
[0.75 0 0 0.75 0 0] CT
0 GC
N
407.5 251.5 M
407.5 247.5 L
404.672 248.672 L
cp
f
GR
GS
[0.75 0 0 0.75 0 0] CT
0 GC
N
407.5 251.5 M
404.672 248.672 L
403.5 251.5 L
cp
f
GR
GS
[0.75 0 0 0.75 0 0] CT
0 GC
N
407.5 251.5 M
403.5 251.5 L
404.672 254.328 L
cp
f
GR
GS
[0.75 0 0 0.75 0 0] CT
0 GC
N
407.5 251.5 M
404.672 254.328 L
407.5 255.5 L
cp
f
GR
GS
[0.75 0 0 0.75 0 0] CT
0 GC
N
407.5 251.5 M
407.5 255.5 L
410.328 254.328 L
cp
f
GR
GS
[0.75 0 0 0.75 0 0] CT
0 GC
N
407.5 251.5 M
410.328 254.328 L
411.5 251.5 L
cp
f
GR
GS
[0.75 0 0 0.75 0 0] CT
0 GC
N
229.5 122.5 M
233.5 122.5 L
232.328 119.672 L
cp
f
GR
GS
[0.75 0 0 0.75 0 0] CT
0 GC
N
229.5 122.5 M
232.328 119.672 L
229.5 118.5 L
cp
f
GR
GS
[0.75 0 0 0.75 0 0] CT
0 GC
N
229.5 122.5 M
229.5 118.5 L
226.672 119.672 L
cp
f
GR
GS
[0.75 0 0 0.75 0 0] CT
0 GC
N
229.5 122.5 M
226.672 119.672 L
225.5 122.5 L
cp
f
GR
GS
[0.75 0 0 0.75 0 0] CT
0 GC
N
229.5 122.5 M
225.5 122.5 L
226.672 125.328 L
cp
f
GR
GS
[0.75 0 0 0.75 0 0] CT
0 GC
N
229.5 122.5 M
226.672 125.328 L
229.5 126.5 L
cp
f
GR
GS
[0.75 0 0 0.75 0 0] CT
0 GC
N
229.5 122.5 M
229.5 126.5 L
232.328 125.328 L
cp
f
GR
GS
[0.75 0 0 0.75 0 0] CT
0 GC
N
229.5 122.5 M
232.328 125.328 L
233.5 122.5 L
cp
f
GR
GS
[0.75 0 0 0.75 0 0] CT
0 GC
N
132.5 187.5 M
136.5 187.5 L
135.328 184.672 L
cp
f
GR
GS
[0.75 0 0 0.75 0 0] CT
0 GC
N
132.5 187.5 M
135.328 184.672 L
132.5 183.5 L
cp
f
GR
GS
[0.75 0 0 0.75 0 0] CT
0 GC
N
132.5 187.5 M
132.5 183.5 L
129.672 184.672 L
cp
f
GR
GS
[0.75 0 0 0.75 0 0] CT
0 GC
N
132.5 187.5 M
129.672 184.672 L
128.5 187.5 L
cp
f
GR
GS
[0.75 0 0 0.75 0 0] CT
0 GC
N
132.5 187.5 M
128.5 187.5 L
129.672 190.328 L
cp
f
GR
GS
[0.75 0 0 0.75 0 0] CT
0 GC
N
132.5 187.5 M
129.672 190.328 L
132.5 191.5 L
cp
f
GR
GS
[0.75 0 0 0.75 0 0] CT
0 GC
N
132.5 187.5 M
132.5 191.5 L
135.328 190.328 L
cp
f
GR
GS
[0.75 0 0 0.75 0 0] CT
0 GC
N
132.5 187.5 M
135.328 190.328 L
136.5 187.5 L
cp
f
GR
GS
[0.75 0 0 0.75 0 0] CT
0 GC
N
326.5 235.5 M
330.5 235.5 L
329.328 232.672 L
cp
f
GR
GS
[0.75 0 0 0.75 0 0] CT
0 GC
N
326.5 235.5 M
329.328 232.672 L
326.5 231.5 L
cp
f
GR
GS
[0.75 0 0 0.75 0 0] CT
0 GC
N
326.5 235.5 M
326.5 231.5 L
323.672 232.672 L
cp
f
GR
GS
[0.75 0 0 0.75 0 0] CT
0 GC
N
326.5 235.5 M
326.5 239.5 L
329.328 238.328 L
cp
f
GR
GS
[0.75 0 0 0.75 0 0] CT
0 GC
N
326.5 235.5 M
329.328 238.328 L
330.5 235.5 L
cp
f
GR
GS
[0.75 0 0 0.75 0 0] CT
0 GC
N
520.5 348.5 M
524.5 348.5 L
523.328 345.672 L
cp
f
GR
GS
[0.75 0 0 0.75 0 0] CT
0 GC
N
520.5 348.5 M
523.328 345.672 L
520.5 344.5 L
cp
f
GR
GS
[0.75 0 0 0.75 0 0] CT
0 GC
N
520.5 348.5 M
520.5 344.5 L
517.672 345.672 L
cp
f
GR
GS
[0.75 0 0 0.75 0 0] CT
0 GC
N
520.5 348.5 M
517.672 345.672 L
516.5 348.5 L
cp
f
GR
GS
[0.75 0 0 0.75 0 0] CT
0 GC
N
520.5 348.5 M
516.5 348.5 L
517.672 351.328 L
cp
f
GR
GS
[0.75 0 0 0.75 0 0] CT
0 GC
N
520.5 348.5 M
517.672 351.328 L
520.5 352.5 L
cp
f
GR
GS
[0.75 0 0 0.75 0 0] CT
0 GC
N
520.5 348.5 M
520.5 352.5 L
523.328 351.328 L
cp
f
GR
GS
[0.75 0 0 0.75 0 0] CT
0 GC
N
520.5 348.5 M
523.328 351.328 L
524.5 348.5 L
cp
f
GR
GS
[0.75 0 0 0.75 0 0] CT
0 GC
N
439.5 187.5 M
443.5 187.5 L
442.328 184.672 L
cp
f
GR
GS
[0.75 0 0 0.75 0 0] CT
0 GC
N
439.5 187.5 M
442.328 184.672 L
439.5 183.5 L
cp
f
GR
GS
[0.75 0 0 0.75 0 0] CT
0 GC
N
439.5 187.5 M
439.5 183.5 L
436.672 184.672 L
cp
f
GR
GS
[0.75 0 0 0.75 0 0] CT
0 GC
N
439.5 187.5 M
436.672 184.672 L
435.5 187.5 L
cp
f
GR
GS
[0.75 0 0 0.75 0 0] CT
0 GC
N
439.5 187.5 M
435.5 187.5 L
436.672 190.328 L
cp
f
GR
GS
[0.75 0 0 0.75 0 0] CT
0 GC
N
439.5 187.5 M
436.672 190.328 L
439.5 191.5 L
cp
f
GR
GS
[0.75 0 0 0.75 0 0] CT
0 GC
N
439.5 187.5 M
439.5 191.5 L
442.328 190.328 L
cp
f
GR
GS
[0.75 0 0 0.75 0 0] CT
0 GC
N
439.5 187.5 M
442.328 190.328 L
443.5 187.5 L
cp
f
GR
GS
[0.75 0 0 0.75 0 0] CT
0 GC
N
471.5 251.5 M
475.5 251.5 L
474.328 248.672 L
cp
f
GR
GS
[0.75 0 0 0.75 0 0] CT
0 GC
N
471.5 251.5 M
474.328 248.672 L
471.5 247.5 L
cp
f
GR
GS
[0.75 0 0 0.75 0 0] CT
0 GC
N
471.5 251.5 M
471.5 247.5 L
468.672 248.672 L
cp
f
GR
GS
[0.75 0 0 0.75 0 0] CT
0 GC
N
471.5 251.5 M
468.672 248.672 L
467.5 251.5 L
cp
f
GR
GS
[0.75 0 0 0.75 0 0] CT
0 GC
N
471.5 251.5 M
467.5 251.5 L
468.672 254.328 L
cp
f
GR
GS
[0.75 0 0 0.75 0 0] CT
0 GC
N
471.5 251.5 M
468.672 254.328 L
471.5 255.5 L
cp
f
GR
GS
[0.75 0 0 0.75 0 0] CT
0 GC
N
471.5 251.5 M
471.5 255.5 L
474.328 254.328 L
cp
f
GR
GS
[0.75 0 0 0.75 0 0] CT
0 GC
N
471.5 251.5 M
474.328 254.328 L
475.5 251.5 L
cp
f
GR
GS
[0.75 0 0 0.75 0 0] CT
0 GC
N
261.5 122.5 M
265.5 122.5 L
264.328 119.672 L
cp
f
GR
GS
[0.75 0 0 0.75 0 0] CT
0 GC
N
261.5 122.5 M
264.328 119.672 L
261.5 118.5 L
cp
f
GR
GS
[0.75 0 0 0.75 0 0] CT
0 GC
N
261.5 122.5 M
261.5 118.5 L
258.672 119.672 L
cp
f
GR
GS
[0.75 0 0 0.75 0 0] CT
0 GC
N
261.5 122.5 M
258.672 119.672 L
257.5 122.5 L
cp
f
GR
GS
[0.75 0 0 0.75 0 0] CT
0 GC
N
261.5 122.5 M
257.5 122.5 L
258.672 125.328 L
cp
f
GR
GS
[0.75 0 0 0.75 0 0] CT
0 GC
N
261.5 122.5 M
258.672 125.328 L
261.5 126.5 L
cp
f
GR
GS
[0.75 0 0 0.75 0 0] CT
0 GC
N
261.5 122.5 M
261.5 126.5 L
264.328 125.328 L
cp
f
GR
GS
[0.75 0 0 0.75 0 0] CT
0 GC
N
261.5 122.5 M
264.328 125.328 L
265.5 122.5 L
cp
f
GR
GS
[0.75 0 0 0.75 0 0] CT
0 GC
N
439.5 429.5 M
443.5 429.5 L
442.328 426.672 L
cp
f
GR
GS
[0.75 0 0 0.75 0 0] CT
0 GC
N
439.5 429.5 M
442.328 426.672 L
439.5 425.5 L
cp
f
GR
GS
[0.75 0 0 0.75 0 0] CT
0 GC
N
439.5 429.5 M
439.5 425.5 L
436.672 426.672 L
cp
f
GR
GS
[0.75 0 0 0.75 0 0] CT
0 GC
N
439.5 429.5 M
436.672 426.672 L
435.5 429.5 L
cp
f
GR
GS
[0.75 0 0 0.75 0 0] CT
0 GC
N
439.5 429.5 M
435.5 429.5 L
436.672 432.328 L
cp
f
GR
GS
[0.75 0 0 0.75 0 0] CT
0 GC
N
439.5 429.5 M
436.672 432.328 L
439.5 433.5 L
cp
f
GR
GS
[0.75 0 0 0.75 0 0] CT
0 GC
N
439.5 429.5 M
439.5 433.5 L
442.328 432.328 L
cp
f
GR
GS
[0.75 0 0 0.75 0 0] CT
0 GC
N
439.5 429.5 M
442.328 432.328 L
443.5 429.5 L
cp
f
GR
GS
[0.75 0 0 0.75 0 0] CT
0 GC
N
617.5 219.5 M
621.5 219.5 L
620.328 216.672 L
cp
f
GR
GS
[0.75 0 0 0.75 0 0] CT
0 GC
N
617.5 219.5 M
620.328 216.672 L
617.5 215.5 L
cp
f
GR
GS
[0.75 0 0 0.75 0 0] CT
0 GC
N
617.5 219.5 M
617.5 215.5 L
614.672 216.672 L
cp
f
GR
GS
[0.75 0 0 0.75 0 0] CT
0 GC
N
617.5 219.5 M
614.672 216.672 L
613.5 219.5 L
cp
f
GR
GS
[0.75 0 0 0.75 0 0] CT
0 GC
N
617.5 219.5 M
613.5 219.5 L
614.672 222.328 L
cp
f
GR
GS
[0.75 0 0 0.75 0 0] CT
0 GC
N
617.5 219.5 M
614.672 222.328 L
617.5 223.5 L
cp
f
GR
GS
[0.75 0 0 0.75 0 0] CT
0 GC
N
617.5 219.5 M
617.5 223.5 L
620.328 222.328 L
cp
f
GR
GS
[0.75 0 0 0.75 0 0] CT
0 GC
N
617.5 219.5 M
620.328 222.328 L
621.5 219.5 L
cp
f
GR
GS
[0.75 0 0 0.75 0 0] CT
0 GC
N
374.5 170.5 M
378.5 170.5 L
377.328 167.672 L
cp
f
GR
GS
[0.75 0 0 0.75 0 0] CT
0 GC
N
374.5 170.5 M
377.328 167.672 L
374.5 166.5 L
cp
f
GR
GS
[0.75 0 0 0.75 0 0] CT
0 GC
N
374.5 170.5 M
374.5 166.5 L
371.672 167.672 L
cp
f
GR
GS
[0.75 0 0 0.75 0 0] CT
0 GC
N
374.5 170.5 M
371.672 167.672 L
370.5 170.5 L
cp
f
GR
GS
[0.75 0 0 0.75 0 0] CT
0 GC
N
374.5 170.5 M
370.5 170.5 L
371.672 173.328 L
cp
f
GR
GS
[0.75 0 0 0.75 0 0] CT
0 GC
N
374.5 170.5 M
371.672 173.328 L
374.5 174.5 L
cp
f
GR
GS
[0.75 0 0 0.75 0 0] CT
0 GC
N
374.5 170.5 M
374.5 174.5 L
377.328 173.328 L
cp
f
GR
GS
[0.75 0 0 0.75 0 0] CT
0 GC
N
374.5 170.5 M
377.328 173.328 L
378.5 170.5 L
cp
f
GR
GS
[0.75 0 0 0.75 0 0] CT
0 GC
N
471.5 332.5 M
475.5 332.5 L
474.328 329.672 L
cp
f
GR
GS
[0.75 0 0 0.75 0 0] CT
0 GC
N
471.5 332.5 M
474.328 329.672 L
471.5 328.5 L
cp
f
GR
GS
[0.75 0 0 0.75 0 0] CT
0 GC
N
471.5 332.5 M
471.5 328.5 L
468.672 329.672 L
cp
f
GR
GS
[0.75 0 0 0.75 0 0] CT
0 GC
N
471.5 332.5 M
468.672 329.672 L
467.5 332.5 L
cp
f
GR
GS
[0.75 0 0 0.75 0 0] CT
0 GC
N
471.5 332.5 M
467.5 332.5 L
468.672 335.328 L
cp
f
GR
GS
[0.75 0 0 0.75 0 0] CT
0 GC
N
471.5 332.5 M
468.672 335.328 L
471.5 336.5 L
cp
f
GR
GS
[0.75 0 0 0.75 0 0] CT
0 GC
N
471.5 332.5 M
471.5 336.5 L
474.328 335.328 L
cp
f
GR
GS
[0.75 0 0 0.75 0 0] CT
0 GC
N
471.5 332.5 M
474.328 335.328 L
475.5 332.5 L
cp
f
GR
GS
[0.75 0 0 0.75 0 0] CT
0 GC
N
310.5 235.5 M
314.5 235.5 L
313.328 232.672 L
cp
f
GR
GS
[0.75 0 0 0.75 0 0] CT
0 GC
N
310.5 235.5 M
313.328 232.672 L
310.5 231.5 L
cp
f
GR
GS
[0.75 0 0 0.75 0 0] CT
0 GC
N
310.5 235.5 M
310.5 231.5 L
307.672 232.672 L
cp
f
GR
GS
[0.75 0 0 0.75 0 0] CT
0 GC
N
310.5 235.5 M
307.672 232.672 L
306.5 235.5 L
cp
f
GR
GS
[0.75 0 0 0.75 0 0] CT
0 GC
N
310.5 235.5 M
306.5 235.5 L
307.672 238.328 L
cp
f
GR
GS
[0.75 0 0 0.75 0 0] CT
0 GC
N
310.5 235.5 M
307.672 238.328 L
310.5 239.5 L
cp
f
GR
GS
[0.75 0 0 0.75 0 0] CT
0 GC
N
310.5 235.5 M
310.5 239.5 L
313.328 238.328 L
cp
f
GR
GS
[0.75 0 0 0.75 0 0] CT
0 GC
N
310.5 235.5 M
313.328 238.328 L
314.5 235.5 L
cp
f
GR
GS
[0.75 0 0 0.75 0 0] CT
0 GC
N
358.5 397.5 M
362.5 397.5 L
361.328 394.672 L
cp
f
GR
GS
[0.75 0 0 0.75 0 0] CT
0 GC
N
358.5 397.5 M
361.328 394.672 L
358.5 393.5 L
cp
f
GR
GS
[0.75 0 0 0.75 0 0] CT
0 GC
N
358.5 397.5 M
358.5 393.5 L
355.672 394.672 L
cp
f
GR
GS
[0.75 0 0 0.75 0 0] CT
0 GC
N
358.5 397.5 M
355.672 394.672 L
354.5 397.5 L
cp
f
GR
GS
[0.75 0 0 0.75 0 0] CT
0 GC
N
358.5 397.5 M
354.5 397.5 L
355.672 400.328 L
cp
f
GR
GS
[0.75 0 0 0.75 0 0] CT
0 GC
N
358.5 397.5 M
355.672 400.328 L
358.5 401.5 L
cp
f
GR
GS
[0.75 0 0 0.75 0 0] CT
0 GC
N
358.5 397.5 M
358.5 401.5 L
361.328 400.328 L
cp
f
GR
GS
[0.75 0 0 0.75 0 0] CT
0 GC
N
358.5 397.5 M
361.328 400.328 L
362.5 397.5 L
cp
f
GR
GS
[0.75 0 0 0.75 0 0] CT
0 GC
N
391.5 267.5 M
395.5 267.5 L
394.328 264.672 L
cp
f
GR
GS
[0.75 0 0 0.75 0 0] CT
0 GC
N
391.5 267.5 M
394.328 264.672 L
391.5 263.5 L
cp
f
GR
GS
[0.75 0 0 0.75 0 0] CT
0 GC
N
391.5 267.5 M
391.5 263.5 L
388.672 264.672 L
cp
f
GR
GS
[0.75 0 0 0.75 0 0] CT
0 GC
N
391.5 267.5 M
388.672 264.672 L
387.5 267.5 L
cp
f
GR
GS
[0.75 0 0 0.75 0 0] CT
0 GC
N
391.5 267.5 M
387.5 267.5 L
388.672 270.328 L
cp
f
GR
GS
[0.75 0 0 0.75 0 0] CT
0 GC
N
391.5 267.5 M
388.672 270.328 L
391.5 271.5 L
cp
f
GR
GS
[0.75 0 0 0.75 0 0] CT
0 GC
N
391.5 267.5 M
391.5 271.5 L
394.328 270.328 L
cp
f
GR
GS
[0.75 0 0 0.75 0 0] CT
0 GC
N
391.5 267.5 M
394.328 270.328 L
395.5 267.5 L
cp
f
GR
GS
[0.75 0 0 0.75 0 0] CT
0 GC
N
633.5 235.5 M
637.5 235.5 L
636.328 232.672 L
cp
f
GR
GS
[0.75 0 0 0.75 0 0] CT
0 GC
N
633.5 235.5 M
636.328 232.672 L
633.5 231.5 L
cp
f
GR
GS
[0.75 0 0 0.75 0 0] CT
0 GC
N
633.5 235.5 M
633.5 231.5 L
630.672 232.672 L
cp
f
GR
GS
[0.75 0 0 0.75 0 0] CT
0 GC
N
633.5 235.5 M
630.672 232.672 L
629.5 235.5 L
cp
f
GR
GS
[0.75 0 0 0.75 0 0] CT
0 GC
N
633.5 235.5 M
629.5 235.5 L
630.672 238.328 L
cp
f
GR
GS
[0.75 0 0 0.75 0 0] CT
0 GC
N
633.5 235.5 M
630.672 238.328 L
633.5 239.5 L
cp
f
GR
GS
[0.75 0 0 0.75 0 0] CT
0 GC
N
633.5 235.5 M
633.5 239.5 L
636.328 238.328 L
cp
f
GR
GS
[0.75 0 0 0.75 0 0] CT
0 GC
N
633.5 235.5 M
636.328 238.328 L
637.5 235.5 L
cp
f
GR
GS
[0.75 0 0 0.75 0 0] CT
0 GC
N
504.5 219.5 M
508.5 219.5 L
507.328 216.672 L
cp
f
GR
GS
[0.75 0 0 0.75 0 0] CT
0 GC
N
504.5 219.5 M
507.328 216.672 L
504.5 215.5 L
cp
f
GR
GS
[0.75 0 0 0.75 0 0] CT
0 GC
N
504.5 219.5 M
504.5 215.5 L
501.672 216.672 L
cp
f
GR
GS
[0.75 0 0 0.75 0 0] CT
0 GC
N
504.5 219.5 M
501.672 216.672 L
500.5 219.5 L
cp
f
GR
GS
[0.75 0 0 0.75 0 0] CT
0 GC
N
504.5 219.5 M
500.5 219.5 L
501.672 222.328 L
cp
f
GR
GS
[0.75 0 0 0.75 0 0] CT
0 GC
N
504.5 219.5 M
501.672 222.328 L
504.5 223.5 L
cp
f
GR
GS
[0.75 0 0 0.75 0 0] CT
0 GC
N
504.5 219.5 M
504.5 223.5 L
507.328 222.328 L
cp
f
GR
GS
[0.75 0 0 0.75 0 0] CT
0 GC
N
504.5 219.5 M
507.328 222.328 L
508.5 219.5 L
cp
f
GR
GS
[0.75 0 0 0.75 0 0] CT
0 GC
N
358.5 219.5 M
362.5 219.5 L
361.328 216.672 L
cp
f
GR
GS
[0.75 0 0 0.75 0 0] CT
0 GC
N
358.5 219.5 M
361.328 216.672 L
358.5 215.5 L
cp
f
GR
GS
[0.75 0 0 0.75 0 0] CT
0 GC
N
358.5 219.5 M
358.5 215.5 L
355.672 216.672 L
cp
f
GR
GS
[0.75 0 0 0.75 0 0] CT
0 GC
N
358.5 219.5 M
355.672 216.672 L
354.5 219.5 L
cp
f
GR
GS
[0.75 0 0 0.75 0 0] CT
0 GC
N
358.5 219.5 M
354.5 219.5 L
355.672 222.328 L
cp
f
GR
GS
[0.75 0 0 0.75 0 0] CT
0 GC
N
358.5 219.5 M
355.672 222.328 L
358.5 223.5 L
cp
f
GR
GS
[0.75 0 0 0.75 0 0] CT
0 GC
N
358.5 219.5 M
358.5 223.5 L
361.328 222.328 L
cp
f
GR
GS
[0.75 0 0 0.75 0 0] CT
0 GC
N
358.5 219.5 M
361.328 222.328 L
362.5 219.5 L
cp
f
GR
GS
[0.75 0 0 0.75 0 0] CT
0 GC
N
617.5 267.5 M
621.5 267.5 L
620.328 264.672 L
cp
f
GR
GS
[0.75 0 0 0.75 0 0] CT
0 GC
N
617.5 267.5 M
620.328 264.672 L
617.5 263.5 L
cp
f
GR
GS
[0.75 0 0 0.75 0 0] CT
0 GC
N
617.5 267.5 M
617.5 263.5 L
614.672 264.672 L
cp
f
GR
GS
[0.75 0 0 0.75 0 0] CT
0 GC
N
617.5 267.5 M
614.672 264.672 L
613.5 267.5 L
cp
f
GR
GS
[0.75 0 0 0.75 0 0] CT
0 GC
N
617.5 267.5 M
613.5 267.5 L
614.672 270.328 L
cp
f
GR
GS
[0.75 0 0 0.75 0 0] CT
0 GC
N
617.5 267.5 M
614.672 270.328 L
617.5 271.5 L
cp
f
GR
GS
[0.75 0 0 0.75 0 0] CT
0 GC
N
617.5 267.5 M
617.5 271.5 L
620.328 270.328 L
cp
f
GR
GS
[0.75 0 0 0.75 0 0] CT
0 GC
N
617.5 267.5 M
620.328 270.328 L
621.5 267.5 L
cp
f
GR
GS
[0.75 0 0 0.75 0 0] CT
0 GC
N
391.5 219.5 M
395.5 219.5 L
394.328 216.672 L
cp
f
GR
GS
[0.75 0 0 0.75 0 0] CT
0 GC
N
391.5 219.5 M
394.328 216.672 L
391.5 215.5 L
cp
f
GR
GS
[0.75 0 0 0.75 0 0] CT
0 GC
N
391.5 219.5 M
391.5 215.5 L
388.672 216.672 L
cp
f
GR
GS
[0.75 0 0 0.75 0 0] CT
0 GC
N
391.5 219.5 M
388.672 216.672 L
387.5 219.5 L
cp
f
GR
GS
[0.75 0 0 0.75 0 0] CT
0 GC
N
391.5 219.5 M
387.5 219.5 L
388.672 222.328 L
cp
f
GR
GS
[0.75 0 0 0.75 0 0] CT
0 GC
N
391.5 219.5 M
388.672 222.328 L
391.5 223.5 L
cp
f
GR
GS
[0.75 0 0 0.75 0 0] CT
0 GC
N
391.5 219.5 M
391.5 223.5 L
394.328 222.328 L
cp
f
GR
GS
[0.75 0 0 0.75 0 0] CT
0 GC
N
391.5 219.5 M
394.328 222.328 L
395.5 219.5 L
cp
f
GR
GS
[0.75 0 0 0.75 0 0] CT
0 GC
N
409.38 255.62 M
409.38 249.38 L
415.62 249.38 L
415.62 255.62 L
cp
f
GR
GS
[0.75 0 0 0.75 0 0] CT
0 GC
1 LJ
0.667 LW
N
412.723 337.602 M
412.723 167.287 L
S
GR
GS
[0.75 0 0 0.75 0 0] CT
0 GC
1 LJ
N
409 341 M
416 334 L
S
GR
GS
[0.75 0 0 0.75 0 0] CT
0 GC
1 LJ
N
409 334 M
416 341 L
S
GR
GS
[0.75 0 0 0.75 0 0] CT
0 GC
1 LJ
N
409 171 M
416 164 L
S
GR
GS
[0.75 0 0 0.75 0 0] CT
0 GC
1 LJ
N
409 164 M
416 171 L
S
GR
GS
[0.75 0 0 0.75 0 0] CT
0 GC
1 LJ
0.667 LW
N
298.881 252.444 M
526.565 252.444 L
S
GR
GS
[0.75 0 0 0.75 0 0] CT
0 GC
1 LJ
N
295 256 M
302 249 L
S
GR
GS
[0.75 0 0 0.75 0 0] CT
0 GC
1 LJ
N
295 249 M
302 256 L
S
GR
GS
[0.75 0 0 0.75 0 0] CT
0 GC
1 LJ
N
523 256 M
530 249 L
S
GR
GS
[0.75 0 0 0.75 0 0] CT
0 GC
1 LJ
N
523 249 M
530 256 L
S
GR
GS
[0.75 0 0 0.75 0 0] CT
0 GC
[10 6] 0 setdash
2 LJ
0.667 LW
N
383.328 431.968 M
392.046 435.206 L
S
GR
GS
[0.75 0 0 0.75 0 0] CT
0 GC
[10 6] 0 setdash
2 LJ
0.667 LW
N
392.046 435.206 M
400.785 438.265 L
S
GR
GS
[0.75 0 0 0.75 0 0] CT
0 GC
[10 6] 0 setdash
2 LJ
0.667 LW
N
400.785 438.265 M
409.536 441.14 L
S
GR
GS
[0.75 0 0 0.75 0 0] CT
0 GC
[10 6] 0 setdash
2 LJ
0.667 LW
N
409.536 441.14 M
418.29 443.828 L
S
GR
GS
[0.75 0 0 0.75 0 0] CT
0 GC
[10 6] 0 setdash
2 LJ
0.667 LW
N
418.29 443.828 M
427.038 446.328 L
S
GR
GS
[0.75 0 0 0.75 0 0] CT
0 GC
[10 6] 0 setdash
2 LJ
0.667 LW
N
427.038 446.328 M
435.772 448.636 L
S
GR
GS
[0.75 0 0 0.75 0 0] CT
0 GC
[10 6] 0 setdash
2 LJ
0.667 LW
N
435.772 448.636 M
444.484 450.751 L
S
GR
GS
[0.75 0 0 0.75 0 0] CT
0 GC
[10 6] 0 setdash
2 LJ
0.667 LW
N
444.484 450.751 M
453.164 452.67 L
S
GR
GS
[0.75 0 0 0.75 0 0] CT
0 GC
[10 6] 0 setdash
2 LJ
0.667 LW
N
453.164 452.67 M
461.804 454.392 L
S
GR
GS
[0.75 0 0 0.75 0 0] CT
0 GC
[10 6] 0 setdash
2 LJ
0.667 LW
N
461.804 454.392 M
470.396 455.914 L
S
GR
GS
[0.75 0 0 0.75 0 0] CT
0 GC
[10 6] 0 setdash
2 LJ
0.667 LW
N
470.396 455.914 M
478.931 457.236 L
S
GR
GS
[0.75 0 0 0.75 0 0] CT
0 GC
[10 6] 0 setdash
2 LJ
0.667 LW
N
478.931 457.236 M
487.4 458.355 L
S
GR
GS
[0.75 0 0 0.75 0 0] CT
0 GC
[10 6] 0 setdash
2 LJ
0.667 LW
N
487.4 458.355 M
495.796 459.271 L
S
GR
GS
[0.75 0 0 0.75 0 0] CT
0 GC
[10 6] 0 setdash
2 LJ
0.667 LW
N
495.796 459.271 M
504.11 459.983 L
S
GR
GS
[0.75 0 0 0.75 0 0] CT
0 GC
[10 6] 0 setdash
2 LJ
0.667 LW
N
504.11 459.983 M
512.333 460.49 L
S
GR
GS
[0.75 0 0 0.75 0 0] CT
0 GC
[10 6] 0 setdash
2 LJ
0.667 LW
N
512.333 460.49 M
520.459 460.792 L
S
GR
GS
[0.75 0 0 0.75 0 0] CT
0 GC
[10 6] 0 setdash
2 LJ
0.667 LW
N
520.459 460.792 M
528.478 460.889 L
S
GR
GS
[0.75 0 0 0.75 0 0] CT
0 GC
[10 6] 0 setdash
2 LJ
0.667 LW
N
528.478 460.889 M
536.382 460.779 L
S
GR
GS
[0.75 0 0 0.75 0 0] CT
0 GC
[10 6] 0 setdash
2 LJ
0.667 LW
N
536.382 460.779 M
544.165 460.464 L
S
GR
GS
[0.75 0 0 0.75 0 0] CT
0 GC
[10 6] 0 setdash
2 LJ
0.667 LW
N
544.165 460.464 M
551.818 459.944 L
S
GR
GS
[0.75 0 0 0.75 0 0] CT
0 GC
[10 6] 0 setdash
2 LJ
0.667 LW
N
551.818 459.944 M
559.334 459.219 L
S
GR
GS
[0.75 0 0 0.75 0 0] CT
0 GC
[10 6] 0 setdash
2 LJ
0.667 LW
N
559.334 459.219 M
566.705 458.289 L
S
GR
GS
[0.75 0 0 0.75 0 0] CT
0 GC
[10 6] 0 setdash
2 LJ
0.667 LW
N
566.705 458.289 M
573.924 457.157 L
S
GR
GS
[0.75 0 0 0.75 0 0] CT
0 GC
[10 6] 0 setdash
2 LJ
0.667 LW
N
573.924 457.157 M
580.984 455.823 L
S
GR
GS
[0.75 0 0 0.75 0 0] CT
0 GC
[10 6] 0 setdash
2 LJ
0.667 LW
N
580.984 455.823 M
587.878 454.288 L
S
GR
GS
[0.75 0 0 0.75 0 0] CT
0 GC
[10 6] 0 setdash
2 LJ
0.667 LW
N
587.878 454.288 M
594.599 452.553 L
S
GR
GS
[0.75 0 0 0.75 0 0] CT
0 GC
[10 6] 0 setdash
2 LJ
0.667 LW
N
594.599 452.553 M
601.141 450.622 L
S
GR
GS
[0.75 0 0 0.75 0 0] CT
0 GC
[10 6] 0 setdash
2 LJ
0.667 LW
N
601.141 450.622 M
607.496 448.494 L
S
GR
GS
[0.75 0 0 0.75 0 0] CT
0 GC
[10 6] 0 setdash
2 LJ
0.667 LW
N
607.496 448.494 M
613.66 446.174 L
S
GR
GS
[0.75 0 0 0.75 0 0] CT
0 GC
[10 6] 0 setdash
2 LJ
0.667 LW
N
331.925 408.939 M
340.341 413.187 L
S
GR
GS
[0.75 0 0 0.75 0 0] CT
0 GC
[10 6] 0 setdash
2 LJ
0.667 LW
N
619.625 443.662 M
625.386 440.961 L
S
GR
GS
[0.75 0 0 0.75 0 0] CT
0 GC
[10 6] 0 setdash
2 LJ
0.667 LW
N
625.386 440.961 M
630.937 438.074 L
S
GR
GS
[0.75 0 0 0.75 0 0] CT
0 GC
[10 6] 0 setdash
2 LJ
0.667 LW
N
630.937 438.074 M
636.273 435.004 L
S
GR
GS
[0.75 0 0 0.75 0 0] CT
0 GC
[10 6] 0 setdash
2 LJ
0.667 LW
N
636.273 435.004 M
641.388 431.754 L
S
GR
GS
[0.75 0 0 0.75 0 0] CT
0 GC
[10 6] 0 setdash
2 LJ
0.667 LW
N
641.388 431.754 M
646.277 428.327 L
S
GR
GS
[0.75 0 0 0.75 0 0] CT
0 GC
[10 6] 0 setdash
2 LJ
0.667 LW
N
646.277 428.327 M
650.936 424.727 L
S
GR
GS
[0.75 0 0 0.75 0 0] CT
0 GC
[10 6] 0 setdash
2 LJ
0.667 LW
N
650.936 424.727 M
655.36 420.956 L
S
GR
GS
[0.75 0 0 0.75 0 0] CT
0 GC
[10 6] 0 setdash
2 LJ
0.667 LW
N
655.36 420.956 M
659.545 417.019 L
S
GR
GS
[0.75 0 0 0.75 0 0] CT
0 GC
[10 6] 0 setdash
2 LJ
0.667 LW
N
659.545 417.019 M
663.486 412.92 L
S
GR
GS
[0.75 0 0 0.75 0 0] CT
0 GC
[10 6] 0 setdash
2 LJ
0.667 LW
N
663.486 412.92 M
667.179 408.662 L
S
GR
GS
[0.75 0 0 0.75 0 0] CT
0 GC
[10 6] 0 setdash
2 LJ
0.667 LW
N
667.179 408.662 M
670.621 404.25 L
S
GR
GS
[0.75 0 0 0.75 0 0] CT
0 GC
[10 6] 0 setdash
2 LJ
0.667 LW
N
670.621 404.25 M
673.809 399.688 L
S
GR
GS
[0.75 0 0 0.75 0 0] CT
0 GC
[10 6] 0 setdash
2 LJ
0.667 LW
N
673.809 399.688 M
676.739 394.981 L
S
GR
GS
[0.75 0 0 0.75 0 0] CT
0 GC
[10 6] 0 setdash
2 LJ
0.667 LW
N
676.739 394.981 M
679.408 390.134 L
S
GR
GS
[0.75 0 0 0.75 0 0] CT
0 GC
[10 6] 0 setdash
2 LJ
0.667 LW
N
679.408 390.134 M
681.815 385.15 L
S
GR
GS
[0.75 0 0 0.75 0 0] CT
0 GC
[10 6] 0 setdash
2 LJ
0.667 LW
N
681.815 385.15 M
683.956 380.035 L
S
GR
GS
[0.75 0 0 0.75 0 0] CT
0 GC
[10 6] 0 setdash
2 LJ
0.667 LW
N
683.956 380.035 M
685.829 374.795 L
S
GR
GS
[0.75 0 0 0.75 0 0] CT
0 GC
[10 6] 0 setdash
2 LJ
0.667 LW
N
685.829 374.795 M
687.432 369.434 L
S
GR
GS
[0.75 0 0 0.75 0 0] CT
0 GC
[10 6] 0 setdash
2 LJ
0.667 LW
N
687.432 369.434 M
688.765 363.957 L
S
GR
GS
[0.75 0 0 0.75 0 0] CT
0 GC
[10 6] 0 setdash
2 LJ
0.667 LW
N
688.765 363.957 M
689.825 358.37 L
S
GR
GS
[0.75 0 0 0.75 0 0] CT
0 GC
[10 6] 0 setdash
2 LJ
0.667 LW
N
689.825 358.37 M
690.611 352.679 L
S
GR
GS
[0.75 0 0 0.75 0 0] CT
0 GC
[10 6] 0 setdash
2 LJ
0.667 LW
N
690.611 352.679 M
691.124 346.889 L
S
GR
GS
[0.75 0 0 0.75 0 0] CT
0 GC
[10 6] 0 setdash
2 LJ
0.667 LW
N
691.124 346.889 M
691.361 341.006 L
S
GR
GS
[0.75 0 0 0.75 0 0] CT
0 GC
[10 6] 0 setdash
2 LJ
0.667 LW
N
691.361 341.006 M
691.324 335.035 L
S
GR
GS
[0.75 0 0 0.75 0 0] CT
0 GC
[10 6] 0 setdash
2 LJ
0.667 LW
N
691.324 335.035 M
691.012 328.983 L
S
GR
GS
[0.75 0 0 0.75 0 0] CT
0 GC
[10 6] 0 setdash
2 LJ
0.667 LW
N
691.012 328.983 M
690.425 322.855 L
S
GR
GS
[0.75 0 0 0.75 0 0] CT
0 GC
[10 6] 0 setdash
2 LJ
0.667 LW
N
690.425 322.855 M
689.564 316.658 L
S
GR
GS
[0.75 0 0 0.75 0 0] CT
0 GC
[10 6] 0 setdash
2 LJ
0.667 LW
N
689.564 316.658 M
688.429 310.397 L
S
GR
GS
[0.75 0 0 0.75 0 0] CT
0 GC
[10 6] 0 setdash
2 LJ
0.667 LW
N
688.429 310.397 M
687.023 304.079 L
S
GR
GS
[0.75 0 0 0.75 0 0] CT
0 GC
[10 6] 0 setdash
2 LJ
0.667 LW
N
687.023 304.079 M
685.346 297.71 L
S
GR
GS
[0.75 0 0 0.75 0 0] CT
0 GC
[10 6] 0 setdash
2 LJ
0.667 LW
N
685.346 297.71 M
683.4 291.297 L
S
GR
GS
[0.75 0 0 0.75 0 0] CT
0 GC
[10 6] 0 setdash
2 LJ
0.667 LW
N
683.4 291.297 M
681.187 284.845 L
S
GR
GS
[0.75 0 0 0.75 0 0] CT
0 GC
[10 6] 0 setdash
2 LJ
0.667 LW
N
681.187 284.845 M
678.709 278.361 L
S
GR
GS
[0.75 0 0 0.75 0 0] CT
0 GC
[10 6] 0 setdash
2 LJ
0.667 LW
N
678.709 278.361 M
675.968 271.852 L
S
GR
GS
[0.75 0 0 0.75 0 0] CT
0 GC
[10 6] 0 setdash
2 LJ
0.667 LW
N
675.968 271.852 M
672.968 265.323 L
S
GR
GS
[0.75 0 0 0.75 0 0] CT
0 GC
[10 6] 0 setdash
2 LJ
0.667 LW
N
672.968 265.323 M
669.71 258.782 L
S
GR
GS
[0.75 0 0 0.75 0 0] CT
0 GC
[10 6] 0 setdash
2 LJ
0.667 LW
N
669.71 258.782 M
666.199 252.235 L
S
GR
GS
[0.75 0 0 0.75 0 0] CT
0 GC
[10 6] 0 setdash
2 LJ
0.667 LW
N
666.199 252.235 M
662.438 245.687 L
S
GR
GS
[0.75 0 0 0.75 0 0] CT
0 GC
[10 6] 0 setdash
2 LJ
0.667 LW
N
662.438 245.687 M
658.431 239.147 L
S
GR
GS
[0.75 0 0 0.75 0 0] CT
0 GC
[10 6] 0 setdash
2 LJ
0.667 LW
N
658.431 239.147 M
654.181 232.619 L
S
GR
GS
[0.75 0 0 0.75 0 0] CT
0 GC
[10 6] 0 setdash
2 LJ
0.667 LW
N
654.181 232.619 M
649.693 226.111 L
S
GR
GS
[0.75 0 0 0.75 0 0] CT
0 GC
[10 6] 0 setdash
2 LJ
0.667 LW
N
649.693 226.111 M
644.971 219.629 L
S
GR
GS
[0.75 0 0 0.75 0 0] CT
0 GC
[10 6] 0 setdash
2 LJ
0.667 LW
N
644.971 219.629 M
640.019 213.18 L
S
GR
GS
[0.75 0 0 0.75 0 0] CT
0 GC
[10 6] 0 setdash
2 LJ
0.667 LW
N
640.019 213.18 M
634.844 206.769 L
S
GR
GS
[0.75 0 0 0.75 0 0] CT
0 GC
[10 6] 0 setdash
2 LJ
0.667 LW
N
634.844 206.769 M
629.449 200.403 L
S
GR
GS
[0.75 0 0 0.75 0 0] CT
0 GC
[10 6] 0 setdash
2 LJ
0.667 LW
N
629.449 200.403 M
623.84 194.089 L
S
GR
GS
[0.75 0 0 0.75 0 0] CT
0 GC
[10 6] 0 setdash
2 LJ
0.667 LW
N
623.84 194.089 M
618.023 187.832 L
S
GR
GS
[0.75 0 0 0.75 0 0] CT
0 GC
[10 6] 0 setdash
2 LJ
0.667 LW
N
618.023 187.832 M
612.004 181.639 L
S
GR
GS
[0.75 0 0 0.75 0 0] CT
0 GC
[10 6] 0 setdash
2 LJ
0.667 LW
N
612.004 181.639 M
605.787 175.516 L
S
GR
GS
[0.75 0 0 0.75 0 0] CT
0 GC
[10 6] 0 setdash
2 LJ
0.667 LW
N
605.787 175.516 M
599.38 169.469 L
S
GR
GS
[0.75 0 0 0.75 0 0] CT
0 GC
[10 6] 0 setdash
2 LJ
0.667 LW
N
599.38 169.469 M
592.789 163.503 L
S
GR
GS
[0.75 0 0 0.75 0 0] CT
0 GC
[10 6] 0 setdash
2 LJ
0.667 LW
N
592.789 163.503 M
586.021 157.626 L
S
GR
GS
[0.75 0 0 0.75 0 0] CT
0 GC
[10 6] 0 setdash
2 LJ
0.667 LW
N
586.021 157.626 M
579.081 151.842 L
S
GR
GS
[0.75 0 0 0.75 0 0] CT
0 GC
[10 6] 0 setdash
2 LJ
0.667 LW
N
579.081 151.842 M
571.977 146.157 L
S
GR
GS
[0.75 0 0 0.75 0 0] CT
0 GC
[10 6] 0 setdash
2 LJ
0.667 LW
N
571.977 146.157 M
564.716 140.577 L
S
GR
GS
[0.75 0 0 0.75 0 0] CT
0 GC
[10 6] 0 setdash
2 LJ
0.667 LW
N
564.716 140.577 M
557.305 135.108 L
S
GR
GS
[0.75 0 0 0.75 0 0] CT
0 GC
[10 6] 0 setdash
2 LJ
0.667 LW
N
557.305 135.108 M
549.751 129.754 L
S
GR
GS
[0.75 0 0 0.75 0 0] CT
0 GC
[10 6] 0 setdash
2 LJ
0.667 LW
N
549.751 129.754 M
542.062 124.522 L
S
GR
GS
[0.75 0 0 0.75 0 0] CT
0 GC
[10 6] 0 setdash
2 LJ
0.667 LW
N
542.062 124.522 M
534.245 119.415 L
S
GR
GS
[0.75 0 0 0.75 0 0] CT
0 GC
[10 6] 0 setdash
2 LJ
0.667 LW
N
534.245 119.415 M
526.308 114.44 L
S
GR
GS
[0.75 0 0 0.75 0 0] CT
0 GC
[10 6] 0 setdash
2 LJ
0.667 LW
N
526.308 114.44 M
518.26 109.601 L
S
GR
GS
[0.75 0 0 0.75 0 0] CT
0 GC
[10 6] 0 setdash
2 LJ
0.667 LW
N
518.26 109.601 M
510.107 104.904 L
S
GR
GS
[0.75 0 0 0.75 0 0] CT
0 GC
[10 6] 0 setdash
2 LJ
0.667 LW
N
510.107 104.904 M
501.858 100.351 L
S
GR
GS
[0.75 0 0 0.75 0 0] CT
0 GC
[10 6] 0 setdash
2 LJ
0.667 LW
N
501.858 100.351 M
493.521 95.949 L
S
GR
GS
[0.75 0 0 0.75 0 0] CT
0 GC
[10 6] 0 setdash
2 LJ
0.667 LW
N
493.521 95.949 M
485.104 91.702 L
S
GR
GS
[0.75 0 0 0.75 0 0] CT
0 GC
[10 6] 0 setdash
2 LJ
0.667 LW
N
485.104 91.702 M
476.616 87.612 L
S
GR
GS
[0.75 0 0 0.75 0 0] CT
0 GC
[10 6] 0 setdash
2 LJ
0.667 LW
N
476.616 87.612 M
468.065 83.686 L
S
GR
GS
[0.75 0 0 0.75 0 0] CT
0 GC
[10 6] 0 setdash
2 LJ
0.667 LW
N
468.065 83.686 M
459.459 79.926 L
S
GR
GS
[0.75 0 0 0.75 0 0] CT
0 GC
[10 6] 0 setdash
2 LJ
0.667 LW
N
459.459 79.926 M
450.807 76.337 L
S
GR
GS
[0.75 0 0 0.75 0 0] CT
0 GC
[10 6] 0 setdash
2 LJ
0.667 LW
N
450.807 76.337 M
442.118 72.921 L
S
GR
GS
[0.75 0 0 0.75 0 0] CT
0 GC
[10 6] 0 setdash
2 LJ
0.667 LW
N
442.118 72.921 M
433.399 69.682 L
S
GR
GS
[0.75 0 0 0.75 0 0] CT
0 GC
[10 6] 0 setdash
2 LJ
0.667 LW
N
433.399 69.682 M
424.66 66.624 L
S
GR
GS
[0.75 0 0 0.75 0 0] CT
0 GC
[10 6] 0 setdash
2 LJ
0.667 LW
N
424.66 66.624 M
415.91 63.749 L
S
GR
GS
[0.75 0 0 0.75 0 0] CT
0 GC
[10 6] 0 setdash
2 LJ
0.667 LW
N
415.91 63.749 M
407.156 61.06 L
S
GR
GS
[0.75 0 0 0.75 0 0] CT
0 GC
[10 6] 0 setdash
2 LJ
0.667 LW
N
407.156 61.06 M
398.408 58.56 L
S
GR
GS
[0.75 0 0 0.75 0 0] CT
0 GC
[10 6] 0 setdash
2 LJ
0.667 LW
N
398.408 58.56 M
389.673 56.252 L
S
GR
GS
[0.75 0 0 0.75 0 0] CT
0 GC
[10 6] 0 setdash
2 LJ
0.667 LW
N
389.673 56.252 M
380.962 54.137 L
S
GR
GS
[0.75 0 0 0.75 0 0] CT
0 GC
[10 6] 0 setdash
2 LJ
0.667 LW
N
380.962 54.137 M
372.282 52.218 L
S
GR
GS
[0.75 0 0 0.75 0 0] CT
0 GC
[10 6] 0 setdash
2 LJ
0.667 LW
N
372.282 52.218 M
363.642 50.497 L
S
GR
GS
[0.75 0 0 0.75 0 0] CT
0 GC
[10 6] 0 setdash
2 LJ
0.667 LW
N
363.642 50.497 M
355.05 48.974 L
S
GR
GS
[0.75 0 0 0.75 0 0] CT
0 GC
[10 6] 0 setdash
2 LJ
0.667 LW
N
355.05 48.974 M
346.515 47.653 L
S
GR
GS
[0.75 0 0 0.75 0 0] CT
0 GC
[10 6] 0 setdash
2 LJ
0.667 LW
N
346.515 47.653 M
338.046 46.534 L
S
GR
GS
[0.75 0 0 0.75 0 0] CT
0 GC
[10 6] 0 setdash
2 LJ
0.667 LW
N
338.046 46.534 M
329.65 45.617 L
S
GR
GS
[0.75 0 0 0.75 0 0] CT
0 GC
[10 6] 0 setdash
2 LJ
0.667 LW
N
329.65 45.617 M
321.336 44.905 L
S
GR
GS
[0.75 0 0 0.75 0 0] CT
0 GC
[10 6] 0 setdash
2 LJ
0.667 LW
N
613.66 446.174 M
619.625 443.662 L
S
GR
GS
[0.75 0 0 0.75 0 0] CT
0 GC
[10 6] 0 setdash
2 LJ
0.667 LW
N
313.112 44.398 M
304.987 44.096 L
S
GR
GS
[0.75 0 0 0.75 0 0] CT
0 GC
[10 6] 0 setdash
2 LJ
0.667 LW
N
304.987 44.096 M
296.968 44 L
S
GR
GS
[0.75 0 0 0.75 0 0] CT
0 GC
[10 6] 0 setdash
2 LJ
0.667 LW
N
296.968 44 M
289.063 44.109 L
S
GR
GS
[0.75 0 0 0.75 0 0] CT
0 GC
[10 6] 0 setdash
2 LJ
0.667 LW
N
289.063 44.109 M
281.28 44.424 L
S
GR
GS
[0.75 0 0 0.75 0 0] CT
0 GC
[10 6] 0 setdash
2 LJ
0.667 LW
N
281.28 44.424 M
273.628 44.945 L
S
GR
GS
[0.75 0 0 0.75 0 0] CT
0 GC
[10 6] 0 setdash
2 LJ
0.667 LW
N
273.628 44.945 M
266.112 45.67 L
S
GR
GS
[0.75 0 0 0.75 0 0] CT
0 GC
[10 6] 0 setdash
2 LJ
0.667 LW
N
266.112 45.67 M
258.741 46.599 L
S
GR
GS
[0.75 0 0 0.75 0 0] CT
0 GC
[10 6] 0 setdash
2 LJ
0.667 LW
N
258.741 46.599 M
251.522 47.731 L
S
GR
GS
[0.75 0 0 0.75 0 0] CT
0 GC
[10 6] 0 setdash
2 LJ
0.667 LW
N
251.522 47.731 M
244.462 49.066 L
S
GR
GS
[0.75 0 0 0.75 0 0] CT
0 GC
[10 6] 0 setdash
2 LJ
0.667 LW
N
244.462 49.066 M
237.568 50.601 L
S
GR
GS
[0.75 0 0 0.75 0 0] CT
0 GC
[10 6] 0 setdash
2 LJ
0.667 LW
N
237.568 50.601 M
230.846 52.335 L
S
GR
GS
[0.75 0 0 0.75 0 0] CT
0 GC
[10 6] 0 setdash
2 LJ
0.667 LW
N
230.846 52.335 M
224.305 54.267 L
S
GR
GS
[0.75 0 0 0.75 0 0] CT
0 GC
[10 6] 0 setdash
2 LJ
0.667 LW
N
224.305 54.267 M
217.949 56.394 L
S
GR
GS
[0.75 0 0 0.75 0 0] CT
0 GC
[10 6] 0 setdash
2 LJ
0.667 LW
N
217.949 56.394 M
211.786 58.715 L
S
GR
GS
[0.75 0 0 0.75 0 0] CT
0 GC
[10 6] 0 setdash
2 LJ
0.667 LW
N
211.786 58.715 M
205.821 61.227 L
S
GR
GS
[0.75 0 0 0.75 0 0] CT
0 GC
[10 6] 0 setdash
2 LJ
0.667 LW
N
205.821 61.227 M
200.06 63.927 L
S
GR
GS
[0.75 0 0 0.75 0 0] CT
0 GC
[10 6] 0 setdash
2 LJ
0.667 LW
N
200.06 63.927 M
194.509 66.814 L
S
GR
GS
[0.75 0 0 0.75 0 0] CT
0 GC
[10 6] 0 setdash
2 LJ
0.667 LW
N
194.509 66.814 M
189.173 69.884 L
S
GR
GS
[0.75 0 0 0.75 0 0] CT
0 GC
[10 6] 0 setdash
2 LJ
0.667 LW
N
189.173 69.884 M
184.058 73.134 L
S
GR
GS
[0.75 0 0 0.75 0 0] CT
0 GC
[10 6] 0 setdash
2 LJ
0.667 LW
N
184.058 73.134 M
179.168 76.561 L
S
GR
GS
[0.75 0 0 0.75 0 0] CT
0 GC
[10 6] 0 setdash
2 LJ
0.667 LW
N
179.168 76.561 M
174.509 80.162 L
S
GR
GS
[0.75 0 0 0.75 0 0] CT
0 GC
[10 6] 0 setdash
2 LJ
0.667 LW
N
174.509 80.162 M
170.085 83.933 L
S
GR
GS
[0.75 0 0 0.75 0 0] CT
0 GC
[10 6] 0 setdash
2 LJ
0.667 LW
N
170.085 83.933 M
165.901 87.869 L
S
GR
GS
[0.75 0 0 0.75 0 0] CT
0 GC
[10 6] 0 setdash
2 LJ
0.667 LW
N
165.901 87.869 M
161.96 91.969 L
S
GR
GS
[0.75 0 0 0.75 0 0] CT
0 GC
[10 6] 0 setdash
2 LJ
0.667 LW
N
161.96 91.969 M
158.267 96.227 L
S
GR
GS
[0.75 0 0 0.75 0 0] CT
0 GC
[10 6] 0 setdash
2 LJ
0.667 LW
N
158.267 96.227 M
154.825 100.638 L
S
GR
GS
[0.75 0 0 0.75 0 0] CT
0 GC
[10 6] 0 setdash
2 LJ
0.667 LW
N
154.825 100.638 M
151.637 105.2 L
S
GR
GS
[0.75 0 0 0.75 0 0] CT
0 GC
[10 6] 0 setdash
2 LJ
0.667 LW
N
151.637 105.2 M
148.707 109.907 L
S
GR
GS
[0.75 0 0 0.75 0 0] CT
0 GC
[10 6] 0 setdash
2 LJ
0.667 LW
N
148.707 109.907 M
146.037 114.755 L
S
GR
GS
[0.75 0 0 0.75 0 0] CT
0 GC
[10 6] 0 setdash
2 LJ
0.667 LW
N
146.037 114.755 M
143.631 119.738 L
S
GR
GS
[0.75 0 0 0.75 0 0] CT
0 GC
[10 6] 0 setdash
2 LJ
0.667 LW
N
143.631 119.738 M
141.49 124.853 L
S
GR
GS
[0.75 0 0 0.75 0 0] CT
0 GC
[10 6] 0 setdash
2 LJ
0.667 LW
N
141.49 124.853 M
139.617 130.094 L
S
GR
GS
[0.75 0 0 0.75 0 0] CT
0 GC
[10 6] 0 setdash
2 LJ
0.667 LW
N
139.617 130.094 M
138.013 135.455 L
S
GR
GS
[0.75 0 0 0.75 0 0] CT
0 GC
[10 6] 0 setdash
2 LJ
0.667 LW
N
138.013 135.455 M
136.681 140.931 L
S
GR
GS
[0.75 0 0 0.75 0 0] CT
0 GC
[10 6] 0 setdash
2 LJ
0.667 LW
N
136.681 140.931 M
135.621 146.518 L
S
GR
GS
[0.75 0 0 0.75 0 0] CT
0 GC
[10 6] 0 setdash
2 LJ
0.667 LW
N
135.621 146.518 M
134.834 152.209 L
S
GR
GS
[0.75 0 0 0.75 0 0] CT
0 GC
[10 6] 0 setdash
2 LJ
0.667 LW
N
134.834 152.209 M
134.322 157.999 L
S
GR
GS
[0.75 0 0 0.75 0 0] CT
0 GC
[10 6] 0 setdash
2 LJ
0.667 LW
N
134.322 157.999 M
134.084 163.883 L
S
GR
GS
[0.75 0 0 0.75 0 0] CT
0 GC
[10 6] 0 setdash
2 LJ
0.667 LW
N
134.084 163.883 M
134.122 169.854 L
S
GR
GS
[0.75 0 0 0.75 0 0] CT
0 GC
[10 6] 0 setdash
2 LJ
0.667 LW
N
134.122 169.854 M
134.434 175.906 L
S
GR
GS
[0.75 0 0 0.75 0 0] CT
0 GC
[10 6] 0 setdash
2 LJ
0.667 LW
N
134.434 175.906 M
135.021 182.034 L
S
GR
GS
[0.75 0 0 0.75 0 0] CT
0 GC
[10 6] 0 setdash
2 LJ
0.667 LW
N
135.021 182.034 M
135.882 188.231 L
S
GR
GS
[0.75 0 0 0.75 0 0] CT
0 GC
[10 6] 0 setdash
2 LJ
0.667 LW
N
135.882 188.231 M
137.016 194.492 L
S
GR
GS
[0.75 0 0 0.75 0 0] CT
0 GC
[10 6] 0 setdash
2 LJ
0.667 LW
N
137.016 194.492 M
138.423 200.809 L
S
GR
GS
[0.75 0 0 0.75 0 0] CT
0 GC
[10 6] 0 setdash
2 LJ
0.667 LW
N
138.423 200.809 M
140.1 207.178 L
S
GR
GS
[0.75 0 0 0.75 0 0] CT
0 GC
[10 6] 0 setdash
2 LJ
0.667 LW
N
140.1 207.178 M
142.046 213.592 L
S
GR
GS
[0.75 0 0 0.75 0 0] CT
0 GC
[10 6] 0 setdash
2 LJ
0.667 LW
N
142.046 213.592 M
144.259 220.044 L
S
GR
GS
[0.75 0 0 0.75 0 0] CT
0 GC
[10 6] 0 setdash
2 LJ
0.667 LW
N
144.259 220.044 M
146.737 226.527 L
S
GR
GS
[0.75 0 0 0.75 0 0] CT
0 GC
[10 6] 0 setdash
2 LJ
0.667 LW
N
146.737 226.527 M
149.478 233.037 L
S
GR
GS
[0.75 0 0 0.75 0 0] CT
0 GC
[10 6] 0 setdash
2 LJ
0.667 LW
N
149.478 233.037 M
152.478 239.565 L
S
GR
GS
[0.75 0 0 0.75 0 0] CT
0 GC
[10 6] 0 setdash
2 LJ
0.667 LW
N
152.478 239.565 M
155.735 246.106 L
S
GR
GS
[0.75 0 0 0.75 0 0] CT
0 GC
[10 6] 0 setdash
2 LJ
0.667 LW
N
155.735 246.106 M
159.246 252.654 L
S
GR
GS
[0.75 0 0 0.75 0 0] CT
0 GC
[10 6] 0 setdash
2 LJ
0.667 LW
N
159.246 252.654 M
163.007 259.201 L
S
GR
GS
[0.75 0 0 0.75 0 0] CT
0 GC
[10 6] 0 setdash
2 LJ
0.667 LW
N
163.007 259.201 M
167.015 265.742 L
S
GR
GS
[0.75 0 0 0.75 0 0] CT
0 GC
[10 6] 0 setdash
2 LJ
0.667 LW
N
167.015 265.742 M
171.265 272.269 L
S
GR
GS
[0.75 0 0 0.75 0 0] CT
0 GC
[10 6] 0 setdash
2 LJ
0.667 LW
N
171.265 272.269 M
175.753 278.777 L
S
GR
GS
[0.75 0 0 0.75 0 0] CT
0 GC
[10 6] 0 setdash
2 LJ
0.667 LW
N
175.753 278.777 M
180.475 285.259 L
S
GR
GS
[0.75 0 0 0.75 0 0] CT
0 GC
[10 6] 0 setdash
2 LJ
0.667 LW
N
180.475 285.259 M
185.426 291.709 L
S
GR
GS
[0.75 0 0 0.75 0 0] CT
0 GC
[10 6] 0 setdash
2 LJ
0.667 LW
N
185.426 291.709 M
190.602 298.12 L
S
GR
GS
[0.75 0 0 0.75 0 0] CT
0 GC
[10 6] 0 setdash
2 LJ
0.667 LW
N
190.602 298.12 M
195.997 304.485 L
S
GR
GS
[0.75 0 0 0.75 0 0] CT
0 GC
[10 6] 0 setdash
2 LJ
0.667 LW
N
195.997 304.485 M
201.605 310.8 L
S
GR
GS
[0.75 0 0 0.75 0 0] CT
0 GC
[10 6] 0 setdash
2 LJ
0.667 LW
N
201.605 310.8 M
207.422 317.057 L
S
GR
GS
[0.75 0 0 0.75 0 0] CT
0 GC
[10 6] 0 setdash
2 LJ
0.667 LW
N
207.422 317.057 M
213.442 323.25 L
S
GR
GS
[0.75 0 0 0.75 0 0] CT
0 GC
[10 6] 0 setdash
2 LJ
0.667 LW
N
213.442 323.25 M
219.658 329.373 L
S
GR
GS
[0.75 0 0 0.75 0 0] CT
0 GC
[10 6] 0 setdash
2 LJ
0.667 LW
N
219.658 329.373 M
226.065 335.42 L
S
GR
GS
[0.75 0 0 0.75 0 0] CT
0 GC
[10 6] 0 setdash
2 LJ
0.667 LW
N
226.065 335.42 M
232.656 341.385 L
S
GR
GS
[0.75 0 0 0.75 0 0] CT
0 GC
[10 6] 0 setdash
2 LJ
0.667 LW
N
232.656 341.385 M
239.425 347.263 L
S
GR
GS
[0.75 0 0 0.75 0 0] CT
0 GC
[10 6] 0 setdash
2 LJ
0.667 LW
N
239.425 347.263 M
246.365 353.047 L
S
GR
GS
[0.75 0 0 0.75 0 0] CT
0 GC
[10 6] 0 setdash
2 LJ
0.667 LW
N
246.365 353.047 M
253.469 358.731 L
S
GR
GS
[0.75 0 0 0.75 0 0] CT
0 GC
[10 6] 0 setdash
2 LJ
0.667 LW
N
253.469 358.731 M
260.73 364.311 L
S
GR
GS
[0.75 0 0 0.75 0 0] CT
0 GC
[10 6] 0 setdash
2 LJ
0.667 LW
N
260.73 364.311 M
268.141 369.781 L
S
GR
GS
[0.75 0 0 0.75 0 0] CT
0 GC
[10 6] 0 setdash
2 LJ
0.667 LW
N
268.141 369.781 M
275.695 375.134 L
S
GR
GS
[0.75 0 0 0.75 0 0] CT
0 GC
[10 6] 0 setdash
2 LJ
0.667 LW
N
275.695 375.134 M
283.384 380.367 L
S
GR
GS
[0.75 0 0 0.75 0 0] CT
0 GC
[10 6] 0 setdash
2 LJ
0.667 LW
N
283.384 380.367 M
291.201 385.473 L
S
GR
GS
[0.75 0 0 0.75 0 0] CT
0 GC
[10 6] 0 setdash
2 LJ
0.667 LW
N
291.201 385.473 M
299.137 390.448 L
S
GR
GS
[0.75 0 0 0.75 0 0] CT
0 GC
[10 6] 0 setdash
2 LJ
0.667 LW
N
299.137 390.448 M
307.186 395.287 L
S
GR
GS
[0.75 0 0 0.75 0 0] CT
0 GC
[10 6] 0 setdash
2 LJ
0.667 LW
N
307.186 395.287 M
315.339 399.985 L
S
GR
GS
[0.75 0 0 0.75 0 0] CT
0 GC
[10 6] 0 setdash
2 LJ
0.667 LW
N
315.339 399.985 M
323.588 404.537 L
S
GR
GS
[0.75 0 0 0.75 0 0] CT
0 GC
[10 6] 0 setdash
2 LJ
0.667 LW
N
323.588 404.537 M
331.925 408.939 L
S
GR
GS
[0.75 0 0 0.75 0 0] CT
0 GC
[10 6] 0 setdash
2 LJ
0.667 LW
N
340.341 413.187 M
348.829 417.276 L
S
GR
GS
[0.75 0 0 0.75 0 0] CT
0 GC
[10 6] 0 setdash
2 LJ
0.667 LW
N
348.829 417.276 M
357.381 421.203 L
S
GR
GS
[0.75 0 0 0.75 0 0] CT
0 GC
[10 6] 0 setdash
2 LJ
0.667 LW
N
357.381 421.203 M
365.986 424.962 L
S
GR
GS
[0.75 0 0 0.75 0 0] CT
0 GC
[10 6] 0 setdash
2 LJ
0.667 LW
N
365.986 424.962 M
374.638 428.552 L
S
GR
GS
[0.75 0 0 0.75 0 0] CT
0 GC
[10 6] 0 setdash
2 LJ
0.667 LW
N
374.638 428.552 M
383.328 431.968 L
S
GR
GS
[0.75 0 0 0.75 0 0] CT
0 GC
[10 6] 0 setdash
2 LJ
0.667 LW
N
321.336 44.905 M
313.112 44.398 L
S
GR
GS
[0.75 0 0 0.75 0 0] CT
0 GC
2 setlinecap
1 LJ
1.333 LW
N
99.639 527 M
99.639 44 L
S
GR
GS
[0.75 0 0 0.75 0 0] CT
0 GC
2 setlinecap
1 LJ
1.333 LW
N
691.361 527 M
691.361 44 L
S
GR
GS
[0.75 0 0 0.75 0 0] CT
0 GC
2 setlinecap
1 LJ
1.333 LW
N
99.639 510.812 M
105.556 510.812 L
S
GR
GS
[0.75 0 0 0.75 0 0] CT
0 GC
2 setlinecap
1 LJ
1.333 LW
N
99.639 429.869 M
105.556 429.869 L
S
GR
GS
[0.75 0 0 0.75 0 0] CT
0 GC
2 setlinecap
1 LJ
1.333 LW
N
99.639 348.927 M
105.556 348.927 L
S
GR
GS
[0.75 0 0 0.75 0 0] CT
0 GC
2 setlinecap
1 LJ
1.333 LW
N
99.639 267.985 M
105.556 267.985 L
S
GR
GS
[0.75 0 0 0.75 0 0] CT
0 GC
2 setlinecap
1 LJ
1.333 LW
N
99.639 187.043 M
105.556 187.043 L
S
GR
GS
[0.75 0 0 0.75 0 0] CT
0 GC
2 setlinecap
1 LJ
1.333 LW
N
99.639 106.101 M
105.556 106.101 L
S
GR
GS
[0.75 0 0 0.75 0 0] CT
0 GC
2 setlinecap
1 LJ
1.333 LW
N
691.361 510.812 M
685.444 510.812 L
S
GR
GS
[0.75 0 0 0.75 0 0] CT
0 GC
2 setlinecap
1 LJ
1.333 LW
N
691.361 429.869 M
685.444 429.869 L
S
GR
GS
[0.75 0 0 0.75 0 0] CT
0 GC
2 setlinecap
1 LJ
1.333 LW
N
691.361 348.927 M
685.444 348.927 L
S
GR
GS
[0.75 0 0 0.75 0 0] CT
0 GC
2 setlinecap
1 LJ
1.333 LW
N
691.361 267.985 M
685.444 267.985 L
S
GR
GS
[0.75 0 0 0.75 0 0] CT
0 GC
2 setlinecap
1 LJ
1.333 LW
N
691.361 187.043 M
685.444 187.043 L
S
GR
GS
[0.75 0 0 0.75 0 0] CT
0 GC
2 setlinecap
1 LJ
1.333 LW
N
691.361 106.101 M
685.444 106.101 L
S
GR
GS
[0.75 0 0 0.75 69.92899 383.10869] CT
0 GC
/Helvetica 18.667 F
GS
[1 0 0 1 0 0] CT
-22 7 moveto 
1 -1 scale
(70) t 
GR
GR
GS
[0.75 0 0 0.75 69.92899 322.40208] CT
0 GC
/Helvetica 18.667 F
GS
[1 0 0 1 0 0] CT
-22 7 moveto 
1 -1 scale
(75) t 
GR
GR
GS
[0.75 0 0 0.75 69.92899 261.69548] CT
0 GC
/Helvetica 18.667 F
GS
[1 0 0 1 0 0] CT
-22 7 moveto 
1 -1 scale
(80) t 
GR
GR
GS
[0.75 0 0 0.75 69.92899 200.98888] CT
0 GC
/Helvetica 18.667 F
GS
[1 0 0 1 0 0] CT
-22 7 moveto 
1 -1 scale
(85) t 
GR
GR
GS
[0.75 0 0 0.75 69.92899 140.28226] CT
0 GC
/Helvetica 18.667 F
GS
[1 0 0 1 0 0] CT
-22 7 moveto 
1 -1 scale
(90) t 
GR
GR
GS
[0.75 0 0 0.75 69.92899 79.57566] CT
0 GC
/Helvetica 18.667 F
GS
[1 0 0 1 0 0] CT
-22 7 moveto 
1 -1 scale
(95) t 
GR
GR
GS
[0 -0.75 0.75 0 50.42897 214.12486] CT
0 GC
/Helvetica 20.533 F
GS
[1 0 0 1 0 0] CT
-62.5 -5 moveto 
1 -1 scale
(Precision \(%\)) t 
GR
GR
GS
[0.75 0 0 0.75 0 0] CT
0 GC
2 setlinecap
1 LJ
1.333 LW
N
99.639 527 M
691.361 527 L
S
GR
GS
[0.75 0 0 0.75 0 0] CT
0 GC
2 setlinecap
1 LJ
1.333 LW
N
99.639 44 M
691.361 44 L
S
GR
GS
[0.75 0 0 0.75 0 0] CT
0 GC
2 setlinecap
1 LJ
1.333 LW
N
148.204 527 M
148.204 521.083 L
S
GR
GS
[0.75 0 0 0.75 0 0] CT
0 GC
2 setlinecap
1 LJ
1.333 LW
N
229.146 527 M
229.146 521.083 L
S
GR
GS
[0.75 0 0 0.75 0 0] CT
0 GC
2 setlinecap
1 LJ
1.333 LW
N
310.088 527 M
310.088 521.083 L
S
GR
GS
[0.75 0 0 0.75 0 0] CT
0 GC
2 setlinecap
1 LJ
1.333 LW
N
391.03 527 M
391.03 521.083 L
S
GR
GS
[0.75 0 0 0.75 0 0] CT
0 GC
2 setlinecap
1 LJ
1.333 LW
N
471.972 527 M
471.972 521.083 L
S
GR
GS
[0.75 0 0 0.75 0 0] CT
0 GC
2 setlinecap
1 LJ
1.333 LW
N
552.915 527 M
552.915 521.083 L
S
GR
GS
[0.75 0 0 0.75 0 0] CT
0 GC
2 setlinecap
1 LJ
1.333 LW
N
633.857 527 M
633.857 521.083 L
S
GR
GS
[0.75 0 0 0.75 0 0] CT
0 GC
2 setlinecap
1 LJ
1.333 LW
N
148.204 44 M
148.204 49.917 L
S
GR
GS
[0.75 0 0 0.75 0 0] CT
0 GC
2 setlinecap
1 LJ
1.333 LW
N
229.146 44 M
229.146 49.917 L
S
GR
GS
[0.75 0 0 0.75 0 0] CT
0 GC
2 setlinecap
1 LJ
1.333 LW
N
310.088 44 M
310.088 49.917 L
S
GR
GS
[0.75 0 0 0.75 0 0] CT
0 GC
2 setlinecap
1 LJ
1.333 LW
N
391.03 44 M
391.03 49.917 L
S
GR
GS
[0.75 0 0 0.75 0 0] CT
0 GC
2 setlinecap
1 LJ
1.333 LW
N
471.972 44 M
471.972 49.917 L
S
GR
GS
[0.75 0 0 0.75 0 0] CT
0 GC
2 setlinecap
1 LJ
1.333 LW
N
552.915 44 M
552.915 49.917 L
S
GR
GS
[0.75 0 0 0.75 0 0] CT
0 GC
2 setlinecap
1 LJ
1.333 LW
N
633.857 44 M
633.857 49.917 L
S
GR
GS
[0.75 0 0 0.75 111.15295 400.05006] CT
0 GC
/Helvetica 18.667 F
GS
[1 0 0 1 0 0] CT
-11 18 moveto 
1 -1 scale
(35) t 
GR
GR
GS
[0.75 0 0 0.75 171.85955 400.05006] CT
0 GC
/Helvetica 18.667 F
GS
[1 0 0 1 0 0] CT
-11 18 moveto 
1 -1 scale
(40) t 
GR
GR
GS
[0.75 0 0 0.75 232.56615 400.05006] CT
0 GC
/Helvetica 18.667 F
GS
[1 0 0 1 0 0] CT
-11 18 moveto 
1 -1 scale
(45) t 
GR
GR
GS
[0.75 0 0 0.75 293.27275 400.05006] CT
0 GC
/Helvetica 18.667 F
GS
[1 0 0 1 0 0] CT
-11 18 moveto 
1 -1 scale
(50) t 
GR
GR
GS
[0.75 0 0 0.75 353.97935 400.05006] CT
0 GC
/Helvetica 18.667 F
GS
[1 0 0 1 0 0] CT
-11 18 moveto 
1 -1 scale
(55) t 
GR
GR
GS
[0.75 0 0 0.75 414.68596 400.05006] CT
0 GC
/Helvetica 18.667 F
GS
[1 0 0 1 0 0] CT
-11 18 moveto 
1 -1 scale
(60) t 
GR
GR
GS
[0.75 0 0 0.75 475.39256 400.05006] CT
0 GC
/Helvetica 18.667 F
GS
[1 0 0 1 0 0] CT
-11 18 moveto 
1 -1 scale
(65) t 
GR
GR
GS
[0.75 0 0 0.75 296.62521 417.54996] CT
0 GC
/Helvetica 20.533 F
GS
[1 0 0 1 0 0] CT
-48.5 20 moveto 
1 -1 scale
(Recall \(%\)) t 
GR
GR
%%Trailer
%%Pages: 1
%%EOF
